<?xml version="1.0" encoding="UTF-8"?>
<kml xmlns="http://www.opengis.net/kml/2.2" xmlns:gx="http://www.google.com/kml/ext/2.2" xmlns:kml="http://www.opengis.net/kml/2.2" xmlns:atom="http://www.w3.org/2005/Atom">
<Document>
<name>path.kml</name>
<Style id="sh_ylw-pushpin">
<IconStyle>
<scale>1.3</scale>
<Icon>
<href>http://maps.google.com/mapfiles/kml/pushpin/ylw-pushpin.png</href>
</Icon>
<hotSpot x="20" y="2" xunits="pixels" yunits="pixels"/>
</IconStyle>
<LineStyle>
<width>5</width>
</LineStyle>
</Style>
<Style id="sn_ylw-pushpin">
<IconStyle>
<scale>1.1</scale>
<Icon>
<href>http://maps.google.com/mapfiles/kml/pushpin/ylw-pushpin.png</href>
</Icon>
<hotSpot x="20" y="2" xunits="pixels" yunits="pixels"/>
</IconStyle>
<LineStyle>
<width>2</width>
</LineStyle>
</Style>
<StyleMap id="msn_ylw-pushpin">
<Pair>
<key>normal</key>
<styleUrl>#sn_ylw-pushpin</styleUrl>
</Pair>
<Pair>
<key>highlight</key>
<styleUrl>#sh_ylw-pushpin</styleUrl>
</Pair>
</StyleMap>
<Placemark>
<name>Untitled Path</name>
<styleUrl>#msn_ylw-pushpin</styleUrl>
<LineString>
<tessellate>1</tessellate>
<coordinates>
 17.1547,48.2116,5000
 21.4361,42.0024,5000
 14.5189,35.9042,5000
 -9.1355,38.7072,5000
 -3.7033,40.4167,5000
 12.4823,41.8955,5000
 18.4214,43.8608,5000
 20.4781,44.8048,5000
 21.0122,52.2297,5000
 24.7545,59.4389,5000
 24.9384,60.1699,5000
 18.0645,59.3328,5000
 10.7387,59.9138,5000
 12.5681,55.6763,5000
 9.5215,47.1411,5000
 19.0408,47.4984,5000
 19.2595,42.4602,5000
 19.8172,41.3317,5000
 23.7166,37.9792,5000
 23.3238,42.7105,5000
 37.6176,55.7558,5000
 27.5766,53.9678,5000
 30.5367,50.4422,5000
 26.0979,44.4479,5000
 28.8497,47.0167,5000
 25.2799,54.6896,5000
 24.1049,56.9465,5000
 6.1296,49.61,5000
 4.3676,50.8371,5000
 4.891,52.3738,5000
 2.351,48.8567,5000
 7.4481,46.948,5000
 -0.1262,51.5002,5000
 -21.8952,64.1353,5000
 -6.2675,53.3441,5000
 13.4115,52.5235,5000
 1.5218,42.5075,5000
 7.4189,43.7325,5000
 12.4578,43.9424,5000
 14.506,46.0514,5000
 15.9785,45.815,5000
 16.3728,48.2092,5000
 14.4205,50.0878,5000
 17.1547,48.2116,5000
</coordinates></LineString></Placemark></Document></kml>