<?xml version="1.0" encoding="utf-8"  standalone="no"?>
<!DOCTYPE svg PUBLIC "-//W3C//DTD SVG 1.1//EN" 
 "http://www.w3.org/Graphics/SVG/1.1/DTD/svg11.dtd">
<svg 
 width="600" height="480" 
 viewBox="0 0 600 480"
 xmlns="http://www.w3.org/2000/svg"
 xmlns:xlink="http://www.w3.org/1999/xlink"
>

<title>Gnuplot</title>
<desc>Produced by GNUPLOT 4.6 patchlevel 6 </desc>

<g id="gnuplot_canvas">

<rect x="0" y="0" width="600" height="480" fill="none"/>
<defs>

	<circle id='gpDot' r='0.5' stroke-width='0.5'/>
	<path id='gpPt0' stroke-width='0.222' stroke='currentColor' d='M-1,0 h2 M0,-1 v2'/>
	<path id='gpPt1' stroke-width='0.222' stroke='currentColor' d='M-1,-1 L1,1 M1,-1 L-1,1'/>
	<path id='gpPt2' stroke-width='0.222' stroke='currentColor' d='M-1,0 L1,0 M0,-1 L0,1 M-1,-1 L1,1 M-1,1 L1,-1'/>
	<rect id='gpPt3' stroke-width='0.222' stroke='currentColor' x='-1' y='-1' width='2' height='2'/>
	<rect id='gpPt4' stroke-width='0.222' stroke='currentColor' fill='currentColor' x='-1' y='-1' width='2' height='2'/>
	<circle id='gpPt5' stroke-width='0.222' stroke='currentColor' cx='0' cy='0' r='1'/>
	<use xlink:href='#gpPt5' id='gpPt6' fill='currentColor' stroke='none'/>
	<path id='gpPt7' stroke-width='0.222' stroke='currentColor' d='M0,-1.33 L-1.33,0.67 L1.33,0.67 z'/>
	<use xlink:href='#gpPt7' id='gpPt8' fill='currentColor' stroke='none'/>
	<use xlink:href='#gpPt7' id='gpPt9' stroke='currentColor' transform='rotate(180)'/>
	<use xlink:href='#gpPt9' id='gpPt10' fill='currentColor' stroke='none'/>
	<use xlink:href='#gpPt3' id='gpPt11' stroke='currentColor' transform='rotate(45)'/>
	<use xlink:href='#gpPt11' id='gpPt12' fill='currentColor' stroke='none'/>
	<filter id='greybox' filterUnits='objectBoundingBox' x='0' y='0' height='1' width='1'>
	  <feFlood flood-color='lightgrey' flood-opacity='1' result='grey'/>
	  <feComposite in='SourceGraphic' in2='grey' operator='atop'/>
	</filter>
</defs>
<g style="fill:none; color:white; stroke:currentColor; stroke-width:2.00; stroke-linecap:butt; stroke-linejoin:miter">
</g>
<g style="fill:none; color:black; stroke:currentColor; stroke-width:2.00; stroke-linecap:butt; stroke-linejoin:miter">
</g>
<g style="fill:none; color:gray; stroke:currentColor; stroke-width:2.00; stroke-linecap:butt; stroke-linejoin:miter">
	<path stroke='gray' stroke-dasharray=' 2,4' class="gridline"  d='M63.6,422.4 L575.0,422.4  '/></g>
<g style="fill:none; color:black; stroke:currentColor; stroke-width:2.00; stroke-linecap:butt; stroke-linejoin:miter">
	<path stroke='black'  d='M63.6,422.4 L72.6,422.4 M575.0,422.4 L566.0,422.4  '/>	<g transform="translate(55.3,426.9)" style="stroke:none; fill:black; font-family:Arial; font-size:12.00pt; text-anchor:end">
		<text> 0</text>
	</g>
</g>
<g style="fill:none; color:gray; stroke:currentColor; stroke-width:2.00; stroke-linecap:butt; stroke-linejoin:miter">
	<path stroke='gray' stroke-dasharray=' 2,4' class="gridline"  d='M63.6,369.8 L575.0,369.8  '/></g>
<g style="fill:none; color:black; stroke:currentColor; stroke-width:2.00; stroke-linecap:butt; stroke-linejoin:miter">
	<path stroke='black'  d='M63.6,369.8 L72.6,369.8 M575.0,369.8 L566.0,369.8  '/>	<g transform="translate(55.3,374.3)" style="stroke:none; fill:black; font-family:Arial; font-size:12.00pt; text-anchor:end">
		<text> 5</text>
	</g>
</g>
<g style="fill:none; color:gray; stroke:currentColor; stroke-width:2.00; stroke-linecap:butt; stroke-linejoin:miter">
	<path stroke='gray' stroke-dasharray=' 2,4' class="gridline"  d='M63.6,317.2 L575.0,317.2  '/></g>
<g style="fill:none; color:black; stroke:currentColor; stroke-width:2.00; stroke-linecap:butt; stroke-linejoin:miter">
	<path stroke='black'  d='M63.6,317.2 L72.6,317.2 M575.0,317.2 L566.0,317.2  '/>	<g transform="translate(55.3,321.7)" style="stroke:none; fill:black; font-family:Arial; font-size:12.00pt; text-anchor:end">
		<text> 10</text>
	</g>
</g>
<g style="fill:none; color:gray; stroke:currentColor; stroke-width:2.00; stroke-linecap:butt; stroke-linejoin:miter">
	<path stroke='gray' stroke-dasharray=' 2,4' class="gridline"  d='M63.6,264.6 L575.0,264.6  '/></g>
<g style="fill:none; color:black; stroke:currentColor; stroke-width:2.00; stroke-linecap:butt; stroke-linejoin:miter">
	<path stroke='black'  d='M63.6,264.6 L72.6,264.6 M575.0,264.6 L566.0,264.6  '/>	<g transform="translate(55.3,269.1)" style="stroke:none; fill:black; font-family:Arial; font-size:12.00pt; text-anchor:end">
		<text> 15</text>
	</g>
</g>
<g style="fill:none; color:gray; stroke:currentColor; stroke-width:2.00; stroke-linecap:butt; stroke-linejoin:miter">
	<path stroke='gray' stroke-dasharray=' 2,4' class="gridline"  d='M63.6,211.9 L575.0,211.9  '/></g>
<g style="fill:none; color:black; stroke:currentColor; stroke-width:2.00; stroke-linecap:butt; stroke-linejoin:miter">
	<path stroke='black'  d='M63.6,211.9 L72.6,211.9 M575.0,211.9 L566.0,211.9  '/>	<g transform="translate(55.3,216.4)" style="stroke:none; fill:black; font-family:Arial; font-size:12.00pt; text-anchor:end">
		<text> 20</text>
	</g>
</g>
<g style="fill:none; color:gray; stroke:currentColor; stroke-width:2.00; stroke-linecap:butt; stroke-linejoin:miter">
	<path stroke='gray' stroke-dasharray=' 2,4' class="gridline"  d='M63.6,159.3 L575.0,159.3  '/></g>
<g style="fill:none; color:black; stroke:currentColor; stroke-width:2.00; stroke-linecap:butt; stroke-linejoin:miter">
	<path stroke='black'  d='M63.6,159.3 L72.6,159.3 M575.0,159.3 L566.0,159.3  '/>	<g transform="translate(55.3,163.8)" style="stroke:none; fill:black; font-family:Arial; font-size:12.00pt; text-anchor:end">
		<text> 25</text>
	</g>
</g>
<g style="fill:none; color:gray; stroke:currentColor; stroke-width:2.00; stroke-linecap:butt; stroke-linejoin:miter">
	<path stroke='gray' stroke-dasharray=' 2,4' class="gridline"  d='M63.6,106.7 L575.0,106.7  '/></g>
<g style="fill:none; color:black; stroke:currentColor; stroke-width:2.00; stroke-linecap:butt; stroke-linejoin:miter">
	<path stroke='black'  d='M63.6,106.7 L72.6,106.7 M575.0,106.7 L566.0,106.7  '/>	<g transform="translate(55.3,111.2)" style="stroke:none; fill:black; font-family:Arial; font-size:12.00pt; text-anchor:end">
		<text> 30</text>
	</g>
</g>
<g style="fill:none; color:gray; stroke:currentColor; stroke-width:2.00; stroke-linecap:butt; stroke-linejoin:miter">
	<path stroke='gray' stroke-dasharray=' 2,4' class="gridline"  d='M63.6,54.1 L575.0,54.1  '/></g>
<g style="fill:none; color:black; stroke:currentColor; stroke-width:2.00; stroke-linecap:butt; stroke-linejoin:miter">
	<path stroke='black'  d='M63.6,54.1 L72.6,54.1 M575.0,54.1 L566.0,54.1  '/>	<g transform="translate(55.3,58.6)" style="stroke:none; fill:black; font-family:Arial; font-size:12.00pt; text-anchor:end">
		<text> 35</text>
	</g>
</g>
<g style="fill:none; color:gray; stroke:currentColor; stroke-width:2.00; stroke-linecap:butt; stroke-linejoin:miter">
	<path stroke='gray' stroke-dasharray=' 2,4' class="gridline"  d='M63.6,422.4 L63.6,54.1  '/></g>
<g style="fill:none; color:black; stroke:currentColor; stroke-width:2.00; stroke-linecap:butt; stroke-linejoin:miter">
	<path stroke='black'  d='M63.6,422.4 L63.6,413.4 M63.6,54.1 L63.6,63.1  '/>	<g transform="translate(63.6,444.9)" style="stroke:none; fill:black; font-family:Arial; font-size:12.00pt; text-anchor:middle">
		<text> 0</text>
	</g>
</g>
<g style="fill:none; color:gray; stroke:currentColor; stroke-width:2.00; stroke-linecap:butt; stroke-linejoin:miter">
	<path stroke='gray' stroke-dasharray=' 2,4' class="gridline"  d='M148.8,422.4 L148.8,54.1  '/></g>
<g style="fill:none; color:black; stroke:currentColor; stroke-width:2.00; stroke-linecap:butt; stroke-linejoin:miter">
	<path stroke='black'  d='M148.8,422.4 L148.8,413.4 M148.8,54.1 L148.8,63.1  '/>	<g transform="translate(148.8,444.9)" style="stroke:none; fill:black; font-family:Arial; font-size:12.00pt; text-anchor:middle">
		<text> 5000</text>
	</g>
</g>
<g style="fill:none; color:gray; stroke:currentColor; stroke-width:2.00; stroke-linecap:butt; stroke-linejoin:miter">
	<path stroke='gray' stroke-dasharray=' 2,4' class="gridline"  d='M234.1,422.4 L234.1,54.1  '/></g>
<g style="fill:none; color:black; stroke:currentColor; stroke-width:2.00; stroke-linecap:butt; stroke-linejoin:miter">
	<path stroke='black'  d='M234.1,422.4 L234.1,413.4 M234.1,54.1 L234.1,63.1  '/>	<g transform="translate(234.1,444.9)" style="stroke:none; fill:black; font-family:Arial; font-size:12.00pt; text-anchor:middle">
		<text> 10000</text>
	</g>
</g>
<g style="fill:none; color:gray; stroke:currentColor; stroke-width:2.00; stroke-linecap:butt; stroke-linejoin:miter">
	<path stroke='gray' stroke-dasharray=' 2,4' class="gridline"  d='M319.3,422.4 L319.3,54.1  '/></g>
<g style="fill:none; color:black; stroke:currentColor; stroke-width:2.00; stroke-linecap:butt; stroke-linejoin:miter">
	<path stroke='black'  d='M319.3,422.4 L319.3,413.4 M319.3,54.1 L319.3,63.1  '/>	<g transform="translate(319.3,444.9)" style="stroke:none; fill:black; font-family:Arial; font-size:12.00pt; text-anchor:middle">
		<text> 15000</text>
	</g>
</g>
<g style="fill:none; color:gray; stroke:currentColor; stroke-width:2.00; stroke-linecap:butt; stroke-linejoin:miter">
	<path stroke='gray' stroke-dasharray=' 2,4' class="gridline"  d='M404.5,422.4 L404.5,54.1  '/></g>
<g style="fill:none; color:black; stroke:currentColor; stroke-width:2.00; stroke-linecap:butt; stroke-linejoin:miter">
	<path stroke='black'  d='M404.5,422.4 L404.5,413.4 M404.5,54.1 L404.5,63.1  '/>	<g transform="translate(404.5,444.9)" style="stroke:none; fill:black; font-family:Arial; font-size:12.00pt; text-anchor:middle">
		<text> 20000</text>
	</g>
</g>
<g style="fill:none; color:gray; stroke:currentColor; stroke-width:2.00; stroke-linecap:butt; stroke-linejoin:miter">
	<path stroke='gray' stroke-dasharray=' 2,4' class="gridline"  d='M489.8,422.4 L489.8,99.1 M489.8,63.1 L489.8,54.1  '/></g>
<g style="fill:none; color:black; stroke:currentColor; stroke-width:2.00; stroke-linecap:butt; stroke-linejoin:miter">
	<path stroke='black'  d='M489.8,422.4 L489.8,413.4 M489.8,54.1 L489.8,63.1  '/>	<g transform="translate(489.8,444.9)" style="stroke:none; fill:black; font-family:Arial; font-size:12.00pt; text-anchor:middle">
		<text> 25000</text>
	</g>
</g>
<g style="fill:none; color:gray; stroke:currentColor; stroke-width:2.00; stroke-linecap:butt; stroke-linejoin:miter">
	<path stroke='gray' stroke-dasharray=' 2,4' class="gridline"  d='M575.0,422.4 L575.0,54.1  '/></g>
<g style="fill:none; color:black; stroke:currentColor; stroke-width:2.00; stroke-linecap:butt; stroke-linejoin:miter">
	<path stroke='black'  d='M575.0,422.4 L575.0,413.4 M575.0,54.1 L575.0,63.1  '/>	<g transform="translate(575.0,444.9)" style="stroke:none; fill:black; font-family:Arial; font-size:12.00pt; text-anchor:middle">
		<text> 30000</text>
	</g>
	<path stroke='black'  d='M63.6,54.1 L63.6,422.4 L575.0,422.4 L575.0,54.1 L63.6,54.1 Z  '/>	<g transform="translate(17.6,238.3) rotate(270)" style="stroke:none; fill:black; font-family:Arial; font-size:12.00pt; text-anchor:middle">
		<text>Objective value</text>
	</g>
	<g transform="translate(319.3,471.9)" style="stroke:none; fill:black; font-family:Arial; font-size:12.00pt; text-anchor:middle">
		<text>Function evaluations (/1)</text>
	</g>
	<g transform="translate(319.3,31.6)" style="stroke:none; fill:black; font-family:Arial; font-size:12.00pt; text-anchor:middle">
		<text>Objective value log</text>
	</g>
</g>
	<g id="gnuplot_plot_1" ><title>gnuplot_plot_1</title>
<g style="fill:none; color:red; stroke:currentColor; stroke-width:2.00; stroke-linecap:butt; stroke-linejoin:miter">
	<g transform="translate(507.9,76.6)" style="stroke:none; fill:black; font-family:Arial; font-size:12.00pt; text-anchor:end">
		<text>default</text>
	</g>
	<path stroke='red'  d='M516.2,72.1 L558.4,72.1 M67.0,114.5 L68.7,148.9 L70.4,166.7 L72.1,180.2 L73.8,199.0 L75.5,207.2 
		L77.2,225.0 L78.9,234.5 L80.6,250.3 L82.4,258.8 L84.1,270.7 L85.8,279.3 L87.5,289.0 L89.2,297.0 
		L90.9,301.2 L92.6,309.5 L94.3,317.1 L96.0,321.2 L97.7,332.6 L99.4,334.6 L101.1,338.4 L102.8,341.0 
		L104.5,343.2 L106.2,345.8 L107.9,350.3 L109.6,351.5 L111.3,355.3 L113.0,359.4 L114.7,362.8 L116.4,364.5 
		L118.1,368.0 L119.9,369.5 L121.6,371.8 L123.3,374.4 L125.0,375.7 L126.7,378.9 L128.4,379.2 L130.1,382.0 
		L131.8,382.6 L133.5,386.4 L135.2,387.1 L136.9,389.2 L138.6,391.4 L140.3,391.6 L142.0,393.4 L143.7,394.6 
		L145.4,394.7 L147.1,395.1 L148.8,395.6 L150.5,396.3 L152.2,396.7 L153.9,397.0 L155.7,397.4 L157.4,398.5 
		L159.1,398.9 L160.8,399.5 L162.5,400.0 L164.2,400.1 L165.9,400.9 L167.6,401.5 L169.3,401.9 L171.0,402.5 
		L172.7,403.0 L174.4,403.2 L176.1,403.6 L177.8,403.8 L179.5,406.0 L181.2,406.1 L182.9,406.4 L184.6,406.9 
		L186.3,407.2 L188.0,407.4 L189.7,407.7 L191.4,407.9 L193.2,408.0 L194.9,408.2 L196.6,408.3 L198.3,408.5 
		L200.0,409.3 L201.7,409.6 L203.4,409.7 L205.1,410.1 L206.8,410.6 L208.5,410.6 L210.2,410.7 L211.9,410.7 
		L213.6,410.8 L215.3,410.9 L217.0,411.0 L218.7,411.0 L220.4,411.1 L222.1,411.4 L223.8,411.5 L225.5,411.7 
		L227.2,411.8 L229.0,411.9 L230.7,412.0 L232.4,412.1 L234.1,412.3 L235.8,412.3 L237.5,412.5 L239.2,412.6 
		L240.9,412.7 L242.6,412.7 L244.3,412.9 L246.0,412.9 L247.7,413.0 L249.4,413.0 L251.1,413.1 L252.8,413.1 
		L254.5,413.1 L256.2,413.2 L257.9,413.3 L259.6,413.3 L261.3,413.4 L263.0,413.6 L264.8,413.8 L266.5,413.8 
		L268.2,413.8 L269.9,413.9 L271.6,413.9 L273.3,413.9 L275.0,414.0 L276.7,414.0 L278.4,414.0 L280.1,414.0 
		L281.8,414.0 L283.5,414.1 L285.2,414.2 L286.9,414.2 L288.6,414.3 L290.3,414.3 L292.0,414.3 L293.7,414.4 
		L295.4,414.5 L297.1,416.7 L298.8,416.8 L300.5,416.8 L302.3,416.8 L304.0,416.9 L305.7,416.9 L307.4,417.0 
		L309.1,417.0 L310.8,417.1 L312.5,417.1 L314.2,417.1 L315.9,417.1 L317.6,417.8 L319.3,417.8 L321.0,417.8 
		L322.7,417.9 L324.4,417.9 L326.1,418.0 L327.8,418.0 L329.5,418.0 L331.2,418.0 L332.9,418.0 L334.6,418.1 
		L336.3,418.1 L338.1,418.1 L339.8,418.1 L341.5,418.1 L343.2,418.1 L344.9,418.2 L346.6,418.2 L348.3,418.2 
		L350.0,418.2 L351.7,418.3 L353.4,418.9 L355.1,418.9 L356.8,418.9 L358.5,418.9 L360.2,418.9 L361.9,418.9 
		L363.6,418.9 L365.3,418.9 L367.0,419.0 L368.7,419.0 L370.4,419.0 L372.1,419.0 L373.8,419.0 L375.6,419.0 
		L377.3,419.1 L379.0,419.1 L380.7,419.1 L382.4,419.1 L384.1,419.1 L385.8,419.1 L387.5,419.1 L389.2,419.1 
		L390.9,419.1 L392.6,419.1 L394.3,419.1 L396.0,419.2 L397.7,419.2 L399.4,419.2 L401.1,419.2 L402.8,419.2 
		L404.5,419.2 L406.2,419.2 L407.9,419.2 L409.6,419.2 L411.4,419.2 L413.1,419.2 L414.8,419.2 L416.5,419.2 
		L418.2,419.2 L419.9,419.2 L421.6,419.3 L423.3,419.3 L425.0,419.3 L426.7,419.3 L428.4,419.3 L430.1,419.3 
		L431.8,419.3 L433.5,419.3 L435.2,419.3 L436.9,419.3 L438.6,419.3 L440.3,419.3 L442.0,419.3 L443.7,419.3 
		L445.4,419.3 L447.1,419.3 L448.9,419.3 L450.6,419.3 L452.3,419.4 L454.0,419.4 L455.7,419.4 L457.4,419.4 
		L459.1,419.4 L460.8,419.4 L462.5,419.4 L464.2,419.4 L465.9,420.2 L467.6,420.2 L469.3,420.2 L471.0,420.3 
		L472.7,420.4 L474.4,420.4 L476.1,420.4 L477.8,420.4 L479.5,420.4 L481.2,420.4 L482.9,420.4 L484.7,420.5 
		L486.4,420.5 L488.1,420.5 L489.8,420.5 L491.5,420.5 L493.2,420.5 L494.9,420.5 L496.6,420.5 L498.3,420.5 
		L500.0,420.5 L501.7,420.5 L503.4,420.5 L505.1,420.5 L506.8,420.5 L508.5,420.5 L510.2,420.5 L511.9,420.5 
		L513.6,420.5 L515.3,420.5 L517.0,420.5 L518.7,420.5 L520.5,420.5 L522.2,420.5 L523.9,420.5 L525.6,420.5 
		L527.3,420.5 L529.0,420.5 L530.7,420.5 L532.4,420.5 L534.1,420.5 L535.8,420.5 L537.5,420.5 L539.2,420.5 
		L540.9,420.5 L542.6,420.5 L544.3,420.5 L546.0,420.5 L547.7,420.5 L549.4,420.5 L551.1,420.5 L552.8,420.5 
		L554.5,420.5 L556.2,420.5 L558.0,420.5 L559.7,420.5 L561.4,420.5 L563.1,420.5 L564.8,420.5 L566.5,420.5 
		L568.2,420.5 L569.9,420.5 L571.6,420.5 L573.3,420.5 L575.0,420.6  '/></g>
	</g>
	<g id="gnuplot_plot_2" ><title>gnuplot_plot_2</title>
<g style="fill:none; color:red; stroke:currentColor; stroke-width:2.00; stroke-linecap:butt; stroke-linejoin:miter">
	<path stroke='red'  d='M67.0,149.8 L67.0,83.7 M63.6,149.8 L71.5,149.8 M63.6,83.7 L71.5,83.7 M101.1,348.1 L101.1,330.7 
		M96.6,348.1 L105.6,348.1 M96.6,330.7 L105.6,330.7 M135.2,394.8 L135.2,382.2 M130.7,394.8 L139.7,394.8 
		M130.7,382.2 L139.7,382.2 M169.3,409.3 L169.3,400.6 M164.8,409.3 L173.8,409.3 M164.8,400.6 L173.8,400.6 
		M203.4,415.7 L203.4,409.8 M198.9,415.7 L207.9,415.7 M198.9,409.8 L207.9,409.8 M237.5,419.3 L237.5,411.2 
		M233.0,419.3 L242.0,419.3 M233.0,411.2 L242.0,411.2 M271.6,420.4 L271.6,413.1 M267.1,420.4 L276.1,420.4 
		M267.1,413.1 L276.1,413.1 M305.7,421.0 L305.7,413.8 M301.2,421.0 L310.2,421.0 M301.2,413.8 L310.2,413.8 
		M339.8,421.3 L339.8,414.4 M335.3,421.3 L344.3,421.3 M335.3,414.4 L344.3,414.4 M373.8,421.4 L373.8,417.2 
		M369.3,421.4 L378.3,421.4 M369.3,417.2 L378.3,417.2 M407.9,421.6 L407.9,417.3 M403.4,421.6 L412.4,421.6 
		M403.4,417.3 L412.4,417.3 M442.0,421.7 L442.0,417.4 M437.5,421.7 L446.5,421.7 M437.5,417.4 L446.5,417.4 
		M476.1,421.7 L476.1,420.9 M471.6,421.7 L480.6,421.7 M471.6,420.9 L480.6,420.9 M510.2,421.8 L510.2,420.9 
		M505.7,421.8 L514.7,421.8 M505.7,420.9 L514.7,420.9 M544.3,421.9 L544.3,420.9 M539.8,421.9 L548.8,421.9 
		M539.8,420.9 L548.8,420.9  '/>	<use xlink:href='#gpPt0' transform='translate(67.0,114.5) scale(4.50)' color='red'/>
	<use xlink:href='#gpPt0' transform='translate(101.1,338.4) scale(4.50)' color='red'/>
	<use xlink:href='#gpPt0' transform='translate(135.2,387.1) scale(4.50)' color='red'/>
	<use xlink:href='#gpPt0' transform='translate(169.3,401.9) scale(4.50)' color='red'/>
	<use xlink:href='#gpPt0' transform='translate(203.4,409.7) scale(4.50)' color='red'/>
	<use xlink:href='#gpPt0' transform='translate(237.5,412.5) scale(4.50)' color='red'/>
	<use xlink:href='#gpPt0' transform='translate(271.6,413.9) scale(4.50)' color='red'/>
	<use xlink:href='#gpPt0' transform='translate(305.7,416.9) scale(4.50)' color='red'/>
	<use xlink:href='#gpPt0' transform='translate(339.8,418.1) scale(4.50)' color='red'/>
	<use xlink:href='#gpPt0' transform='translate(373.8,419.0) scale(4.50)' color='red'/>
	<use xlink:href='#gpPt0' transform='translate(407.9,419.2) scale(4.50)' color='red'/>
	<use xlink:href='#gpPt0' transform='translate(442.0,419.3) scale(4.50)' color='red'/>
	<use xlink:href='#gpPt0' transform='translate(476.1,420.4) scale(4.50)' color='red'/>
	<use xlink:href='#gpPt0' transform='translate(510.2,420.5) scale(4.50)' color='red'/>
	<use xlink:href='#gpPt0' transform='translate(544.3,420.5) scale(4.50)' color='red'/>
</g>
	</g>
	<g id="gnuplot_plot_3" ><title>gnuplot_plot_3</title>
<g style="fill:none; color:red; stroke:currentColor; stroke-width:2.00; stroke-linecap:butt; stroke-linejoin:miter">
	<g transform="translate(507.9,94.6)" style="stroke:none; fill:black; font-family:Arial; font-size:12.00pt; text-anchor:end">
		<text>adaptive</text>
	</g>
	<path stroke='green'  d='M516.2,90.1 L558.4,90.1 M67.0,112.9 L68.7,121.1 L70.4,130.9 L72.1,148.7 L73.8,154.6 L75.5,164.1 
		L77.2,173.3 L78.9,182.3 L80.6,186.4 L82.4,196.0 L84.1,207.8 L85.8,211.3 L87.5,216.0 L89.2,223.7 
		L90.9,229.3 L92.6,230.3 L94.3,236.5 L96.0,240.0 L97.7,242.4 L99.4,244.5 L101.1,249.3 L102.8,252.5 
		L104.5,254.7 L106.2,259.6 L107.9,263.7 L109.6,266.8 L111.3,269.3 L113.0,275.4 L114.7,279.6 L116.4,282.7 
		L118.1,287.7 L119.9,291.0 L121.6,295.5 L123.3,297.0 L125.0,300.0 L126.7,302.9 L128.4,304.9 L130.1,308.3 
		L131.8,311.7 L133.5,314.1 L135.2,314.8 L136.9,320.2 L138.6,322.0 L140.3,325.9 L142.0,327.8 L143.7,331.0 
		L145.4,332.7 L147.1,334.6 L148.8,337.7 L150.5,339.1 L152.2,341.1 L153.9,344.4 L155.7,345.3 L157.4,346.1 
		L159.1,347.5 L160.8,348.7 L162.5,351.2 L164.2,352.8 L165.9,354.5 L167.6,355.6 L169.3,356.6 L171.0,358.4 
		L172.7,361.0 L174.4,362.1 L176.1,364.2 L177.8,365.6 L179.5,366.3 L181.2,367.0 L182.9,367.8 L184.6,369.1 
		L186.3,370.5 L188.0,371.4 L189.7,372.8 L191.4,373.9 L193.2,375.0 L194.9,376.3 L196.6,377.1 L198.3,377.4 
		L200.0,378.0 L201.7,379.0 L203.4,380.0 L205.1,381.0 L206.8,381.8 L208.5,382.7 L210.2,383.6 L211.9,384.5 
		L213.6,385.5 L215.3,386.2 L217.0,387.1 L218.7,387.6 L220.4,388.1 L222.1,388.9 L223.8,389.4 L225.5,389.8 
		L227.2,391.1 L229.0,391.4 L230.7,391.9 L232.4,393.0 L234.1,394.2 L235.8,394.5 L237.5,395.4 L239.2,395.7 
		L240.9,398.4 L242.6,399.1 L244.3,399.8 L246.0,400.5 L247.7,400.5 L249.4,400.8 L251.1,401.0 L252.8,401.3 
		L254.5,401.7 L256.2,401.8 L257.9,402.5 L259.6,402.7 L261.3,406.3 L263.0,406.7 L264.8,407.0 L266.5,407.4 
		L268.2,407.5 L269.9,407.7 L271.6,408.6 L273.3,408.9 L275.0,409.1 L276.7,409.3 L278.4,409.4 L280.1,409.5 
		L281.8,409.8 L283.5,409.8 L285.2,410.1 L286.9,410.4 L288.6,410.5 L290.3,410.9 L292.0,411.3 L293.7,411.7 
		L295.4,411.9 L297.1,411.9 L298.8,412.1 L300.5,412.3 L302.3,412.6 L304.0,412.7 L305.7,412.9 L307.4,413.2 
		L309.1,413.3 L310.8,413.4 L312.5,413.6 L314.2,413.6 L315.9,413.7 L317.6,413.7 L319.3,413.9 L321.0,414.2 
		L322.7,414.3 L324.4,414.4 L326.1,414.5 L327.8,414.5 L329.5,414.9 L331.2,415.0 L332.9,415.3 L334.6,415.3 
		L336.3,415.3 L338.1,415.5 L339.8,415.6 L341.5,415.7 L343.2,415.8 L344.9,415.9 L346.6,416.0 L348.3,416.1 
		L350.0,416.2 L351.7,416.2 L353.4,416.3 L355.1,416.3 L356.8,416.4 L358.5,416.5 L360.2,416.6 L361.9,416.6 
		L363.6,416.7 L365.3,416.8 L367.0,416.8 L368.7,416.9 L370.4,417.0 L372.1,417.0 L373.8,417.0 L375.6,417.1 
		L377.3,417.1 L379.0,417.2 L380.7,417.2 L382.4,417.3 L384.1,417.3 L385.8,417.4 L387.5,417.5 L389.2,418.3 
		L390.9,418.3 L392.6,418.4 L394.3,418.4 L396.0,418.5 L397.7,418.5 L399.4,418.6 L401.1,418.6 L402.8,418.7 
		L404.5,418.7 L406.2,418.7 L407.9,418.8 L409.6,418.8 L411.4,418.8 L413.1,418.8 L414.8,418.8 L416.5,418.8 
		L418.2,418.9 L419.9,418.9 L421.6,419.0 L423.3,419.0 L425.0,419.0 L426.7,419.0 L428.4,419.1 L430.1,419.1 
		L431.8,419.1 L433.5,419.1 L435.2,419.1 L436.9,419.2 L438.6,419.2 L440.3,419.2 L442.0,419.3 L443.7,419.3 
		L445.4,419.4 L447.1,419.4 L448.9,419.4 L450.6,419.5 L452.3,419.5 L454.0,419.5 L455.7,419.5 L457.4,419.5 
		L459.1,419.6 L460.8,419.6 L462.5,419.6 L464.2,419.6 L465.9,419.6 L467.6,419.7 L469.3,419.7 L471.0,419.7 
		L472.7,419.7 L474.4,419.8 L476.1,419.8 L477.8,419.8 L479.5,419.8 L481.2,419.8 L482.9,419.9 L484.7,419.9 
		L486.4,419.9 L488.1,419.9 L489.8,420.0 L491.5,420.0 L493.2,420.0 L494.9,420.0 L496.6,420.0 L498.3,420.0 
		L500.0,420.1 L501.7,420.1 L503.4,420.1 L505.1,420.1 L506.8,420.1 L508.5,420.1 L510.2,420.1 L511.9,420.2 
		L513.6,420.2 L515.3,420.2 L517.0,420.2 L518.7,420.2 L520.5,420.2 L522.2,420.2 L523.9,420.2 L525.6,420.2 
		L527.3,420.3 L529.0,420.3 L530.7,420.3 L532.4,420.3 L534.1,420.3 L535.8,420.3 L537.5,420.3 L539.2,420.3 
		L540.9,420.3 L542.6,420.3 L544.3,420.4 L546.0,420.4 L547.7,420.4 L549.4,420.4 L551.1,420.4 L552.8,420.4 
		L554.5,420.4 L556.2,420.4 L558.0,420.4 L559.7,420.4 L561.4,420.4 L563.1,420.4 L564.8,420.5 L566.5,420.5 
		L568.2,420.5 L569.9,420.5 L571.6,420.5 L573.3,420.5 L575.0,420.5  '/></g>
	</g>
	<g id="gnuplot_plot_4" ><title>gnuplot_plot_4</title>
<g style="fill:none; color:red; stroke:currentColor; stroke-width:2.00; stroke-linecap:butt; stroke-linejoin:miter">
	<path stroke='green'  d='M67.0,156.6 L67.0,82.9 M63.6,156.6 L71.5,156.6 M63.6,82.9 L71.5,82.9 M101.1,261.5 L101.1,229.2 
		M96.6,261.5 L105.6,261.5 M96.6,229.2 L105.6,229.2 M135.2,322.8 L135.2,305.0 M130.7,322.8 L139.7,322.8 
		M130.7,305.0 L139.7,305.0 M169.3,370.5 L169.3,348.2 M164.8,370.5 L173.8,370.5 M164.8,348.2 L173.8,348.2 
		M203.4,388.6 L203.4,378.6 M198.9,388.6 L207.9,388.6 M198.9,378.6 L207.9,378.6 M237.5,402.6 L237.5,396.8 
		M233.0,402.6 L242.0,402.6 M233.0,396.8 L242.0,396.8 M271.6,413.2 L271.6,404.9 M267.1,413.2 L276.1,413.2 
		M267.1,404.9 L276.1,404.9 M305.7,415.6 L305.7,409.6 M301.2,415.6 L310.2,415.6 M301.2,409.6 L310.2,409.6 
		M339.8,417.5 L339.8,415.2 M335.3,417.5 L344.3,417.5 M335.3,415.2 L344.3,415.2 M373.8,419.1 L373.8,416.6 
		M369.3,419.1 L378.3,419.1 M369.3,416.6 L378.3,416.6 M407.9,420.1 L407.9,417.6 M403.4,420.1 L412.4,420.1 
		M403.4,417.6 L412.4,417.6 M442.0,420.4 L442.0,418.3 M437.5,420.4 L446.5,420.4 M437.5,418.3 L446.5,418.3 
		M476.1,420.8 L476.1,419.2 M471.6,420.8 L480.6,420.8 M471.6,419.2 L480.6,419.2 M510.2,421.3 L510.2,419.7 
		M505.7,421.3 L514.7,421.3 M505.7,419.7 L514.7,419.7 M544.3,421.4 L544.3,419.8 M539.8,421.4 L548.8,421.4 
		M539.8,419.8 L548.8,419.8  '/>	<use xlink:href='#gpPt0' transform='translate(67.0,112.9) scale(4.50)' color='green'/>
	<use xlink:href='#gpPt0' transform='translate(101.1,249.3) scale(4.50)' color='green'/>
	<use xlink:href='#gpPt0' transform='translate(135.2,314.8) scale(4.50)' color='green'/>
	<use xlink:href='#gpPt0' transform='translate(169.3,356.6) scale(4.50)' color='green'/>
	<use xlink:href='#gpPt0' transform='translate(203.4,380.0) scale(4.50)' color='green'/>
	<use xlink:href='#gpPt0' transform='translate(237.5,395.4) scale(4.50)' color='green'/>
	<use xlink:href='#gpPt0' transform='translate(271.6,408.6) scale(4.50)' color='green'/>
	<use xlink:href='#gpPt0' transform='translate(305.7,412.9) scale(4.50)' color='green'/>
	<use xlink:href='#gpPt0' transform='translate(339.8,415.6) scale(4.50)' color='green'/>
	<use xlink:href='#gpPt0' transform='translate(373.8,417.0) scale(4.50)' color='green'/>
	<use xlink:href='#gpPt0' transform='translate(407.9,418.8) scale(4.50)' color='green'/>
	<use xlink:href='#gpPt0' transform='translate(442.0,419.3) scale(4.50)' color='green'/>
	<use xlink:href='#gpPt0' transform='translate(476.1,419.8) scale(4.50)' color='green'/>
	<use xlink:href='#gpPt0' transform='translate(510.2,420.1) scale(4.50)' color='green'/>
	<use xlink:href='#gpPt0' transform='translate(544.3,420.4) scale(4.50)' color='green'/>
</g>
	</g>
<g style="fill:none; color:black; stroke:currentColor; stroke-width:2.00; stroke-linecap:butt; stroke-linejoin:miter">
	<path stroke='black'  d='M63.6,54.1 L63.6,422.4 L575.0,422.4 L575.0,54.1 L63.6,54.1 Z  '/></g>
</g>
</svg>

