<?xml version="1.0" encoding="utf-8"  standalone="no"?>
<!DOCTYPE svg PUBLIC "-//W3C//DTD SVG 1.1//EN" 
 "http://www.w3.org/Graphics/SVG/1.1/DTD/svg11.dtd">
<svg 
 width="600" height="480" 
 viewBox="0 0 600 480"
 xmlns="http://www.w3.org/2000/svg"
 xmlns:xlink="http://www.w3.org/1999/xlink"
>

<title>Gnuplot</title>
<desc>Produced by GNUPLOT 4.6 patchlevel 6 </desc>

<g id="gnuplot_canvas">

<rect x="0" y="0" width="600" height="480" fill="none"/>
<defs>

	<circle id='gpDot' r='0.5' stroke-width='0.5'/>
	<path id='gpPt0' stroke-width='0.222' stroke='currentColor' d='M-1,0 h2 M0,-1 v2'/>
	<path id='gpPt1' stroke-width='0.222' stroke='currentColor' d='M-1,-1 L1,1 M1,-1 L-1,1'/>
	<path id='gpPt2' stroke-width='0.222' stroke='currentColor' d='M-1,0 L1,0 M0,-1 L0,1 M-1,-1 L1,1 M-1,1 L1,-1'/>
	<rect id='gpPt3' stroke-width='0.222' stroke='currentColor' x='-1' y='-1' width='2' height='2'/>
	<rect id='gpPt4' stroke-width='0.222' stroke='currentColor' fill='currentColor' x='-1' y='-1' width='2' height='2'/>
	<circle id='gpPt5' stroke-width='0.222' stroke='currentColor' cx='0' cy='0' r='1'/>
	<use xlink:href='#gpPt5' id='gpPt6' fill='currentColor' stroke='none'/>
	<path id='gpPt7' stroke-width='0.222' stroke='currentColor' d='M0,-1.33 L-1.33,0.67 L1.33,0.67 z'/>
	<use xlink:href='#gpPt7' id='gpPt8' fill='currentColor' stroke='none'/>
	<use xlink:href='#gpPt7' id='gpPt9' stroke='currentColor' transform='rotate(180)'/>
	<use xlink:href='#gpPt9' id='gpPt10' fill='currentColor' stroke='none'/>
	<use xlink:href='#gpPt3' id='gpPt11' stroke='currentColor' transform='rotate(45)'/>
	<use xlink:href='#gpPt11' id='gpPt12' fill='currentColor' stroke='none'/>
	<filter id='greybox' filterUnits='objectBoundingBox' x='0' y='0' height='1' width='1'>
	  <feFlood flood-color='lightgrey' flood-opacity='1' result='grey'/>
	  <feComposite in='SourceGraphic' in2='grey' operator='atop'/>
	</filter>
</defs>
<g style="fill:none; color:white; stroke:currentColor; stroke-width:2.00; stroke-linecap:butt; stroke-linejoin:miter">
</g>
<g style="fill:none; color:black; stroke:currentColor; stroke-width:2.00; stroke-linecap:butt; stroke-linejoin:miter">
</g>
<g style="fill:none; color:gray; stroke:currentColor; stroke-width:2.00; stroke-linecap:butt; stroke-linejoin:miter">
	<path stroke='gray' stroke-dasharray=' 2,4' class="gridline"  d='M80.2,422.4 L575.0,422.4  '/></g>
<g style="fill:none; color:black; stroke:currentColor; stroke-width:2.00; stroke-linecap:butt; stroke-linejoin:miter">
	<path stroke='black'  d='M80.2,422.4 L89.2,422.4 M575.0,422.4 L566.0,422.4  '/>	<g transform="translate(71.9,426.9)" style="stroke:none; fill:black; font-family:Arial; font-size:12.00pt; text-anchor:end">
		<text> 0</text>
	</g>
</g>
<g style="fill:none; color:gray; stroke:currentColor; stroke-width:2.00; stroke-linecap:butt; stroke-linejoin:miter">
	<path stroke='gray' stroke-dasharray=' 2,4' class="gridline"  d='M80.2,369.8 L575.0,369.8  '/></g>
<g style="fill:none; color:black; stroke:currentColor; stroke-width:2.00; stroke-linecap:butt; stroke-linejoin:miter">
	<path stroke='black'  d='M80.2,369.8 L89.2,369.8 M575.0,369.8 L566.0,369.8  '/>	<g transform="translate(71.9,374.3)" style="stroke:none; fill:black; font-family:Arial; font-size:12.00pt; text-anchor:end">
		<text> 200</text>
	</g>
</g>
<g style="fill:none; color:gray; stroke:currentColor; stroke-width:2.00; stroke-linecap:butt; stroke-linejoin:miter">
	<path stroke='gray' stroke-dasharray=' 2,4' class="gridline"  d='M80.2,317.2 L575.0,317.2  '/></g>
<g style="fill:none; color:black; stroke:currentColor; stroke-width:2.00; stroke-linecap:butt; stroke-linejoin:miter">
	<path stroke='black'  d='M80.2,317.2 L89.2,317.2 M575.0,317.2 L566.0,317.2  '/>	<g transform="translate(71.9,321.7)" style="stroke:none; fill:black; font-family:Arial; font-size:12.00pt; text-anchor:end">
		<text> 400</text>
	</g>
</g>
<g style="fill:none; color:gray; stroke:currentColor; stroke-width:2.00; stroke-linecap:butt; stroke-linejoin:miter">
	<path stroke='gray' stroke-dasharray=' 2,4' class="gridline"  d='M80.2,264.6 L575.0,264.6  '/></g>
<g style="fill:none; color:black; stroke:currentColor; stroke-width:2.00; stroke-linecap:butt; stroke-linejoin:miter">
	<path stroke='black'  d='M80.2,264.6 L89.2,264.6 M575.0,264.6 L566.0,264.6  '/>	<g transform="translate(71.9,269.1)" style="stroke:none; fill:black; font-family:Arial; font-size:12.00pt; text-anchor:end">
		<text> 600</text>
	</g>
</g>
<g style="fill:none; color:gray; stroke:currentColor; stroke-width:2.00; stroke-linecap:butt; stroke-linejoin:miter">
	<path stroke='gray' stroke-dasharray=' 2,4' class="gridline"  d='M80.2,211.9 L575.0,211.9  '/></g>
<g style="fill:none; color:black; stroke:currentColor; stroke-width:2.00; stroke-linecap:butt; stroke-linejoin:miter">
	<path stroke='black'  d='M80.2,211.9 L89.2,211.9 M575.0,211.9 L566.0,211.9  '/>	<g transform="translate(71.9,216.4)" style="stroke:none; fill:black; font-family:Arial; font-size:12.00pt; text-anchor:end">
		<text> 800</text>
	</g>
</g>
<g style="fill:none; color:gray; stroke:currentColor; stroke-width:2.00; stroke-linecap:butt; stroke-linejoin:miter">
	<path stroke='gray' stroke-dasharray=' 2,4' class="gridline"  d='M80.2,159.3 L575.0,159.3  '/></g>
<g style="fill:none; color:black; stroke:currentColor; stroke-width:2.00; stroke-linecap:butt; stroke-linejoin:miter">
	<path stroke='black'  d='M80.2,159.3 L89.2,159.3 M575.0,159.3 L566.0,159.3  '/>	<g transform="translate(71.9,163.8)" style="stroke:none; fill:black; font-family:Arial; font-size:12.00pt; text-anchor:end">
		<text> 1000</text>
	</g>
</g>
<g style="fill:none; color:gray; stroke:currentColor; stroke-width:2.00; stroke-linecap:butt; stroke-linejoin:miter">
	<path stroke='gray' stroke-dasharray=' 2,4' class="gridline"  d='M80.2,106.7 L575.0,106.7  '/></g>
<g style="fill:none; color:black; stroke:currentColor; stroke-width:2.00; stroke-linecap:butt; stroke-linejoin:miter">
	<path stroke='black'  d='M80.2,106.7 L89.2,106.7 M575.0,106.7 L566.0,106.7  '/>	<g transform="translate(71.9,111.2)" style="stroke:none; fill:black; font-family:Arial; font-size:12.00pt; text-anchor:end">
		<text> 1200</text>
	</g>
</g>
<g style="fill:none; color:gray; stroke:currentColor; stroke-width:2.00; stroke-linecap:butt; stroke-linejoin:miter">
	<path stroke='gray' stroke-dasharray=' 2,4' class="gridline"  d='M80.2,54.1 L575.0,54.1  '/></g>
<g style="fill:none; color:black; stroke:currentColor; stroke-width:2.00; stroke-linecap:butt; stroke-linejoin:miter">
	<path stroke='black'  d='M80.2,54.1 L89.2,54.1 M575.0,54.1 L566.0,54.1  '/>	<g transform="translate(71.9,58.6)" style="stroke:none; fill:black; font-family:Arial; font-size:12.00pt; text-anchor:end">
		<text> 1400</text>
	</g>
</g>
<g style="fill:none; color:gray; stroke:currentColor; stroke-width:2.00; stroke-linecap:butt; stroke-linejoin:miter">
	<path stroke='gray' stroke-dasharray=' 2,4' class="gridline"  d='M80.2,422.4 L80.2,54.1  '/></g>
<g style="fill:none; color:black; stroke:currentColor; stroke-width:2.00; stroke-linecap:butt; stroke-linejoin:miter">
	<path stroke='black'  d='M80.2,422.4 L80.2,413.4 M80.2,54.1 L80.2,63.1  '/>	<g transform="translate(80.2,444.9)" style="stroke:none; fill:black; font-family:Arial; font-size:12.00pt; text-anchor:middle">
		<text> 0</text>
	</g>
</g>
<g style="fill:none; color:gray; stroke:currentColor; stroke-width:2.00; stroke-linecap:butt; stroke-linejoin:miter">
	<path stroke='gray' stroke-dasharray=' 2,4' class="gridline"  d='M162.7,422.4 L162.7,54.1  '/></g>
<g style="fill:none; color:black; stroke:currentColor; stroke-width:2.00; stroke-linecap:butt; stroke-linejoin:miter">
	<path stroke='black'  d='M162.7,422.4 L162.7,413.4 M162.7,54.1 L162.7,63.1  '/>	<g transform="translate(162.7,444.9)" style="stroke:none; fill:black; font-family:Arial; font-size:12.00pt; text-anchor:middle">
		<text> 5000</text>
	</g>
</g>
<g style="fill:none; color:gray; stroke:currentColor; stroke-width:2.00; stroke-linecap:butt; stroke-linejoin:miter">
	<path stroke='gray' stroke-dasharray=' 2,4' class="gridline"  d='M245.1,422.4 L245.1,54.1  '/></g>
<g style="fill:none; color:black; stroke:currentColor; stroke-width:2.00; stroke-linecap:butt; stroke-linejoin:miter">
	<path stroke='black'  d='M245.1,422.4 L245.1,413.4 M245.1,54.1 L245.1,63.1  '/>	<g transform="translate(245.1,444.9)" style="stroke:none; fill:black; font-family:Arial; font-size:12.00pt; text-anchor:middle">
		<text> 10000</text>
	</g>
</g>
<g style="fill:none; color:gray; stroke:currentColor; stroke-width:2.00; stroke-linecap:butt; stroke-linejoin:miter">
	<path stroke='gray' stroke-dasharray=' 2,4' class="gridline"  d='M327.6,422.4 L327.6,54.1  '/></g>
<g style="fill:none; color:black; stroke:currentColor; stroke-width:2.00; stroke-linecap:butt; stroke-linejoin:miter">
	<path stroke='black'  d='M327.6,422.4 L327.6,413.4 M327.6,54.1 L327.6,63.1  '/>	<g transform="translate(327.6,444.9)" style="stroke:none; fill:black; font-family:Arial; font-size:12.00pt; text-anchor:middle">
		<text> 15000</text>
	</g>
</g>
<g style="fill:none; color:gray; stroke:currentColor; stroke-width:2.00; stroke-linecap:butt; stroke-linejoin:miter">
	<path stroke='gray' stroke-dasharray=' 2,4' class="gridline"  d='M410.1,422.4 L410.1,54.1  '/></g>
<g style="fill:none; color:black; stroke:currentColor; stroke-width:2.00; stroke-linecap:butt; stroke-linejoin:miter">
	<path stroke='black'  d='M410.1,422.4 L410.1,413.4 M410.1,54.1 L410.1,63.1  '/>	<g transform="translate(410.1,444.9)" style="stroke:none; fill:black; font-family:Arial; font-size:12.00pt; text-anchor:middle">
		<text> 20000</text>
	</g>
</g>
<g style="fill:none; color:gray; stroke:currentColor; stroke-width:2.00; stroke-linecap:butt; stroke-linejoin:miter">
	<path stroke='gray' stroke-dasharray=' 2,4' class="gridline"  d='M492.5,422.4 L492.5,99.1 M492.5,63.1 L492.5,54.1  '/></g>
<g style="fill:none; color:black; stroke:currentColor; stroke-width:2.00; stroke-linecap:butt; stroke-linejoin:miter">
	<path stroke='black'  d='M492.5,422.4 L492.5,413.4 M492.5,54.1 L492.5,63.1  '/>	<g transform="translate(492.5,444.9)" style="stroke:none; fill:black; font-family:Arial; font-size:12.00pt; text-anchor:middle">
		<text> 25000</text>
	</g>
</g>
<g style="fill:none; color:gray; stroke:currentColor; stroke-width:2.00; stroke-linecap:butt; stroke-linejoin:miter">
	<path stroke='gray' stroke-dasharray=' 2,4' class="gridline"  d='M575.0,422.4 L575.0,54.1  '/></g>
<g style="fill:none; color:black; stroke:currentColor; stroke-width:2.00; stroke-linecap:butt; stroke-linejoin:miter">
	<path stroke='black'  d='M575.0,422.4 L575.0,413.4 M575.0,54.1 L575.0,63.1  '/>	<g transform="translate(575.0,444.9)" style="stroke:none; fill:black; font-family:Arial; font-size:12.00pt; text-anchor:middle">
		<text> 30000</text>
	</g>
	<path stroke='black'  d='M80.2,54.1 L80.2,422.4 L575.0,422.4 L575.0,54.1 L80.2,54.1 Z  '/>	<g transform="translate(17.6,238.3) rotate(270)" style="stroke:none; fill:black; font-family:Arial; font-size:12.00pt; text-anchor:middle">
		<text>Objective value</text>
	</g>
	<g transform="translate(327.6,471.9)" style="stroke:none; fill:black; font-family:Arial; font-size:12.00pt; text-anchor:middle">
		<text>Function evaluations (/1)</text>
	</g>
	<g transform="translate(327.6,31.6)" style="stroke:none; fill:black; font-family:Arial; font-size:12.00pt; text-anchor:middle">
		<text>Objective value log</text>
	</g>
</g>
	<g id="gnuplot_plot_1" ><title>gnuplot_plot_1</title>
<g style="fill:none; color:red; stroke:currentColor; stroke-width:2.00; stroke-linecap:butt; stroke-linejoin:miter">
	<g transform="translate(507.9,76.6)" style="stroke:none; fill:black; font-family:Arial; font-size:12.00pt; text-anchor:end">
		<text>default</text>
	</g>
	<path stroke='red'  d='M516.2,72.1 L558.4,72.1 M83.5,209.8 L85.1,268.1 L86.8,312.3 L88.4,337.2 L90.1,340.7 L91.7,354.2 
		L93.4,357.6 L95.0,362.6 L96.7,372.4 L98.3,375.1 L100.0,378.8 L101.6,380.3 L103.3,384.0 L104.9,389.5 
		L106.6,392.5 L108.2,395.5 L109.9,395.6 L111.5,395.9 L113.2,396.7 L114.8,398.6 L116.5,400.5 L118.1,400.6 
		L119.8,400.7 L121.4,402.7 L123.1,402.7 L124.7,403.0 L126.4,403.7 L128.0,403.7 L129.7,403.7 L131.3,404.5 
		L133.0,405.5 L134.6,405.6 L136.3,406.2 L137.9,406.5 L139.6,406.5 L141.2,406.7 L142.9,406.9 L144.5,407.0 
		L146.2,407.0 L147.8,407.9 L149.5,407.9 L151.1,408.2 L152.8,409.3 L154.4,409.6 L156.1,410.3 L157.7,410.3 
		L159.4,410.3 L161.0,410.4 L162.7,410.5 L164.3,410.5 L166.0,410.5 L167.6,410.6 L169.3,410.6 L170.9,410.8 
		L172.6,410.9 L174.2,411.3 L175.9,411.3 L177.5,411.4 L179.2,411.5 L180.8,411.6 L182.5,411.6 L184.1,412.1 
		L185.8,412.2 L187.4,412.3 L189.1,412.3 L190.7,412.4 L192.4,412.7 L194.0,412.8 L195.7,412.9 L197.3,413.1 
		L199.0,413.3 L200.6,413.3 L202.3,413.6 L203.9,413.9 L205.5,413.9 L207.2,414.3 L208.8,414.4 L210.5,414.7 
		L212.1,414.7 L213.8,414.9 L215.4,415.0 L217.1,415.2 L218.7,415.2 L220.4,415.7 L222.0,415.7 L223.7,415.7 
		L225.3,415.8 L227.0,416.0 L228.6,416.3 L230.3,416.4 L231.9,416.5 L233.6,417.3 L235.2,417.3 L236.9,417.5 
		L238.5,417.6 L240.2,418.0 L241.8,418.2 L243.5,418.2 L245.1,418.3 L246.8,418.3 L248.4,418.4 L250.1,418.4 
		L251.7,418.4 L253.4,418.6 L255.0,418.7 L256.7,418.7 L258.3,418.8 L260.0,418.8 L261.6,418.9 L263.3,418.9 
		L264.9,419.0 L266.6,419.0 L268.2,419.0 L269.9,419.2 L271.5,419.3 L273.2,419.3 L274.8,419.4 L276.5,419.5 
		L278.1,419.5 L279.8,419.9 L281.4,420.1 L283.1,420.1 L284.7,420.4 L286.4,420.5 L288.0,420.5 L289.7,420.6 
		L291.3,420.6 L293.0,420.7 L294.6,420.8 L296.3,420.8 L297.9,420.9 L299.6,420.9 L301.2,421.1 L302.9,421.2 
		L304.5,421.3 L306.2,421.3 L307.8,421.4 L309.5,421.4 L311.1,421.4 L312.8,421.4 L314.4,421.4 L316.1,421.4 
		L317.7,421.5 L319.4,421.5 L321.0,421.6 L322.7,421.6 L324.3,421.6 L326.0,421.6 L327.6,421.6 L329.2,421.6 
		L330.9,421.7 L332.5,421.7 L334.2,421.7 L335.8,421.7 L337.5,421.7 L339.1,421.8 L340.8,421.8 L342.4,421.8 
		L344.1,421.9 L345.7,421.9 L347.4,421.9 L349.0,421.9 L350.7,421.9 L352.3,421.9 L354.0,421.9 L355.6,421.9 
		L357.3,421.9 L358.9,422.0 L360.6,422.0 L362.2,422.0 L363.9,422.0 L365.5,422.0 L367.2,422.0 L368.8,422.0 
		L370.5,422.0 L372.1,422.0 L373.8,422.0 L375.4,422.0 L377.1,422.0 L378.7,422.1 L380.4,422.1 L382.0,422.1 
		L383.7,422.1 L385.3,422.1 L387.0,422.1 L388.6,422.1 L390.3,422.1 L391.9,422.1 L393.6,422.1 L395.2,422.1 
		L396.9,422.1 L398.5,422.1 L400.2,422.1 L401.8,422.1 L403.5,422.1 L405.1,422.1 L406.8,422.1 L408.4,422.1 
		L410.1,422.2 L411.7,422.2 L413.4,422.2 L415.0,422.2 L416.7,422.2 L418.3,422.2 L420.0,422.2 L421.6,422.2 
		L423.3,422.2 L424.9,422.2 L426.6,422.2 L428.2,422.2 L429.9,422.2 L431.5,422.2 L433.2,422.2 L434.8,422.2 
		L436.5,422.2 L438.1,422.2 L439.8,422.2 L441.4,422.2 L443.1,422.2 L444.7,422.2 L446.4,422.2 L448.0,422.2 
		L449.7,422.2 L451.3,422.2 L452.9,422.2 L454.6,422.2 L456.2,422.2 L457.9,422.2 L459.5,422.2 L461.2,422.2 
		L462.8,422.2 L464.5,422.2 L466.1,422.2 L467.8,422.2 L469.4,422.2 L471.1,422.2 L472.7,422.2 L474.4,422.2 
		L476.0,422.2 L477.7,422.2 L479.3,422.3 L481.0,422.3 L482.6,422.3 L484.3,422.3 L485.9,422.3 L487.6,422.3 
		L489.2,422.3 L490.9,422.3 L492.5,422.3 L494.2,422.3 L495.8,422.3 L497.5,422.3 L499.1,422.3 L500.8,422.3 
		L502.4,422.3 L504.1,422.3 L505.7,422.3 L507.4,422.3 L509.0,422.3 L510.7,422.3 L512.3,422.3 L514.0,422.3 
		L515.6,422.3 L517.3,422.4 L518.9,422.4 L520.6,422.4 L522.2,422.4 L523.9,422.4 L525.5,422.4 L527.2,422.4 
		L528.8,422.4 L530.5,422.4 L532.1,422.4 L533.8,422.4 L535.4,422.4 L537.1,422.4 L538.7,422.4 L540.4,422.4 
		L542.0,422.4 L543.7,422.4 L545.3,422.4 L547.0,422.4 L548.6,422.4 L550.3,422.4 L551.9,422.4 L553.6,422.4 
		L555.2,422.4 L556.9,422.4 L558.5,422.4 L560.2,422.4 L561.8,422.4 L563.5,422.4 L565.1,422.4 L566.8,422.4 
		L568.4,422.4 L570.1,422.4 L571.7,422.4 L573.4,422.4 L575.0,422.4  '/></g>
	</g>
	<g id="gnuplot_plot_2" ><title>gnuplot_plot_2</title>
<g style="fill:none; color:red; stroke:currentColor; stroke-width:2.00; stroke-linecap:butt; stroke-linejoin:miter">
	<path stroke='red'  d='M83.5,233.0 L83.5,177.7 M80.2,233.0 L88.0,233.0 M80.2,177.7 L88.0,177.7 M116.5,404.1 L116.5,397.6 
		M112.0,404.1 L121.0,404.1 M112.0,397.6 L121.0,397.6 M149.5,411.3 L149.5,402.7 M145.0,411.3 L154.0,411.3 
		M145.0,402.7 L154.0,402.7 M182.5,414.0 L182.5,409.7 M178.0,414.0 L187.0,414.0 M178.0,409.7 L187.0,409.7 
		M215.4,416.0 L215.4,413.1 M210.9,416.0 L219.9,416.0 M210.9,413.1 L219.9,413.1 M248.4,419.6 L248.4,417.0 
		M243.9,419.6 L252.9,419.6 M243.9,417.0 L252.9,417.0 M281.4,421.2 L281.4,418.8 M276.9,421.2 L285.9,421.2 
		M276.9,418.8 L285.9,418.8 M314.4,422.2 L314.4,420.5 M309.9,422.2 L318.9,422.2 M309.9,420.5 L318.9,420.5 
		M347.4,422.2 L347.4,421.7 M342.9,422.2 L351.9,422.2 M342.9,421.7 L351.9,421.7 M380.4,422.4 L380.4,422.0 
		M375.9,422.4 L384.9,422.4 M375.9,422.0 L384.9,422.0 M413.4,422.4 L413.4,422.0 M408.9,422.4 L417.9,422.4 
		M408.9,422.0 L417.9,422.0 M446.4,422.4 L446.4,422.1 M441.9,422.4 L450.9,422.4 M441.9,422.1 L450.9,422.1 
		M479.3,422.4 L479.3,422.1 M474.8,422.4 L483.8,422.4 M474.8,422.1 L483.8,422.1 M512.3,422.4 L512.3,422.3 
		M507.8,422.4 L516.8,422.4 M507.8,422.3 L516.8,422.3 M545.3,422.4 M540.8,422.4 L549.8,422.4 M540.8,422.4 
		L549.8,422.4  '/>	<use xlink:href='#gpPt0' transform='translate(83.5,209.8) scale(4.50)' color='red'/>
	<use xlink:href='#gpPt0' transform='translate(116.5,400.5) scale(4.50)' color='red'/>
	<use xlink:href='#gpPt0' transform='translate(149.5,407.9) scale(4.50)' color='red'/>
	<use xlink:href='#gpPt0' transform='translate(182.5,411.6) scale(4.50)' color='red'/>
	<use xlink:href='#gpPt0' transform='translate(215.4,415.0) scale(4.50)' color='red'/>
	<use xlink:href='#gpPt0' transform='translate(248.4,418.4) scale(4.50)' color='red'/>
	<use xlink:href='#gpPt0' transform='translate(281.4,420.1) scale(4.50)' color='red'/>
	<use xlink:href='#gpPt0' transform='translate(314.4,421.4) scale(4.50)' color='red'/>
	<use xlink:href='#gpPt0' transform='translate(347.4,421.9) scale(4.50)' color='red'/>
	<use xlink:href='#gpPt0' transform='translate(380.4,422.1) scale(4.50)' color='red'/>
	<use xlink:href='#gpPt0' transform='translate(413.4,422.2) scale(4.50)' color='red'/>
	<use xlink:href='#gpPt0' transform='translate(446.4,422.2) scale(4.50)' color='red'/>
	<use xlink:href='#gpPt0' transform='translate(479.3,422.3) scale(4.50)' color='red'/>
	<use xlink:href='#gpPt0' transform='translate(512.3,422.3) scale(4.50)' color='red'/>
	<use xlink:href='#gpPt0' transform='translate(545.3,422.4) scale(4.50)' color='red'/>
</g>
	</g>
	<g id="gnuplot_plot_3" ><title>gnuplot_plot_3</title>
<g style="fill:none; color:red; stroke:currentColor; stroke-width:2.00; stroke-linecap:butt; stroke-linejoin:miter">
	<g transform="translate(507.9,94.6)" style="stroke:none; fill:black; font-family:Arial; font-size:12.00pt; text-anchor:end">
		<text>adaptive</text>
	</g>
	<path stroke='green'  d='M516.2,90.1 L558.4,90.1 M83.5,93.0 L85.1,102.0 L86.8,126.4 L88.4,145.7 L90.1,172.3 L91.7,190.8 
		L93.4,207.0 L95.0,216.8 L96.7,248.4 L98.3,271.6 L100.0,278.4 L101.6,292.0 L103.3,303.9 L104.9,311.8 
		L106.6,322.1 L108.2,328.3 L109.9,335.5 L111.5,340.3 L113.2,353.0 L114.8,358.1 L116.5,363.0 L118.1,366.4 
		L119.8,368.4 L121.4,370.9 L123.1,374.6 L124.7,377.9 L126.4,379.6 L128.0,381.8 L129.7,382.3 L131.3,384.0 
		L133.0,385.3 L134.6,387.5 L136.3,388.7 L137.9,390.1 L139.6,391.2 L141.2,392.0 L142.9,393.0 L144.5,394.3 
		L146.2,395.1 L147.8,396.2 L149.5,396.6 L151.1,396.9 L152.8,397.6 L154.4,397.9 L156.1,398.3 L157.7,398.9 
		L159.4,399.4 L161.0,400.0 L162.7,400.4 L164.3,400.9 L166.0,401.7 L167.6,402.1 L169.3,402.5 L170.9,402.6 
		L172.6,402.8 L174.2,403.0 L175.9,403.4 L177.5,403.4 L179.2,403.6 L180.8,403.9 L182.5,404.3 L184.1,405.0 
		L185.8,405.1 L187.4,405.4 L189.1,405.8 L190.7,406.0 L192.4,406.6 L194.0,407.0 L195.7,407.1 L197.3,407.3 
		L199.0,407.5 L200.6,407.5 L202.3,407.7 L203.9,407.9 L205.5,408.0 L207.2,408.2 L208.8,408.3 L210.5,408.4 
		L212.1,408.7 L213.8,408.8 L215.4,408.9 L217.1,408.9 L218.7,409.1 L220.4,409.4 L222.0,409.5 L223.7,409.7 
		L225.3,410.0 L227.0,410.4 L228.6,410.4 L230.3,410.5 L231.9,410.6 L233.6,410.6 L235.2,410.9 L236.9,411.1 
		L238.5,411.2 L240.2,411.3 L241.8,411.3 L243.5,411.5 L245.1,411.5 L246.8,411.8 L248.4,411.8 L250.1,412.0 
		L251.7,412.1 L253.4,412.1 L255.0,412.2 L256.7,412.5 L258.3,412.7 L260.0,412.8 L261.6,412.8 L263.3,412.9 
		L264.9,413.0 L266.6,413.1 L268.2,413.2 L269.9,413.2 L271.5,413.2 L273.2,413.2 L274.8,413.4 L276.5,413.5 
		L278.1,413.7 L279.8,413.7 L281.4,414.0 L283.1,414.0 L284.7,414.0 L286.4,414.1 L288.0,414.1 L289.7,414.1 
		L291.3,414.1 L293.0,414.2 L294.6,414.3 L296.3,414.3 L297.9,414.5 L299.6,414.7 L301.2,414.7 L302.9,414.8 
		L304.5,414.8 L306.2,414.9 L307.8,415.0 L309.5,415.0 L311.1,415.0 L312.8,415.2 L314.4,415.3 L316.1,415.4 
		L317.7,415.4 L319.4,415.4 L321.0,415.5 L322.7,415.6 L324.3,415.6 L326.0,415.8 L327.6,415.9 L329.2,415.9 
		L330.9,416.1 L332.5,416.1 L334.2,416.2 L335.8,416.3 L337.5,416.5 L339.1,416.5 L340.8,416.5 L342.4,416.6 
		L344.1,416.7 L345.7,416.8 L347.4,416.9 L349.0,416.9 L350.7,417.0 L352.3,417.0 L354.0,417.0 L355.6,417.1 
		L357.3,417.1 L358.9,417.2 L360.6,417.2 L362.2,417.3 L363.9,417.5 L365.5,417.5 L367.2,417.7 L368.8,417.8 
		L370.5,417.9 L372.1,417.9 L373.8,417.9 L375.4,418.2 L377.1,418.2 L378.7,418.2 L380.4,418.2 L382.0,418.3 
		L383.7,418.4 L385.3,418.4 L387.0,418.5 L388.6,418.5 L390.3,418.6 L391.9,418.7 L393.6,418.8 L395.2,418.9 
		L396.9,419.0 L398.5,419.0 L400.2,419.0 L401.8,419.1 L403.5,419.1 L405.1,419.1 L406.8,419.2 L408.4,419.2 
		L410.1,419.3 L411.7,419.3 L413.4,419.4 L415.0,419.4 L416.7,419.4 L418.3,419.5 L420.0,419.5 L421.6,419.6 
		L423.3,419.6 L424.9,419.7 L426.6,419.7 L428.2,419.7 L429.9,419.7 L431.5,419.7 L433.2,419.8 L434.8,419.8 
		L436.5,419.8 L438.1,419.8 L439.8,419.9 L441.4,420.0 L443.1,420.0 L444.7,420.1 L446.4,420.1 L448.0,420.1 
		L449.7,420.2 L451.3,420.2 L452.9,420.3 L454.6,420.3 L456.2,420.3 L457.9,420.4 L459.5,420.4 L461.2,420.4 
		L462.8,420.5 L464.5,420.5 L466.1,420.5 L467.8,420.6 L469.4,420.6 L471.1,420.6 L472.7,420.7 L474.4,420.7 
		L476.0,420.7 L477.7,420.8 L479.3,420.8 L481.0,420.8 L482.6,420.8 L484.3,420.8 L485.9,420.9 L487.6,420.9 
		L489.2,420.9 L490.9,421.0 L492.5,421.0 L494.2,421.1 L495.8,421.1 L497.5,421.1 L499.1,421.1 L500.8,421.2 
		L502.4,421.2 L504.1,421.2 L505.7,421.2 L507.4,421.2 L509.0,421.2 L510.7,421.3 L512.3,421.3 L514.0,421.3 
		L515.6,421.3 L517.3,421.3 L518.9,421.3 L520.6,421.4 L522.2,421.4 L523.9,421.4 L525.5,421.4 L527.2,421.5 
		L528.8,421.5 L530.5,421.5 L532.1,421.6 L533.8,421.6 L535.4,421.6 L537.1,421.7 L538.7,421.7 L540.4,421.7 
		L542.0,421.8 L543.7,421.8 L545.3,421.8 L547.0,421.8 L548.6,421.8 L550.3,421.8 L551.9,421.8 L553.6,421.8 
		L555.2,421.9 L556.9,421.9 L558.5,421.9 L560.2,422.0 L561.8,422.0 L563.5,422.0 L565.1,422.0 L566.8,422.0 
		L568.4,422.0 L570.1,422.1 L571.7,422.1 L573.4,422.1 L575.0,422.1  '/></g>
	</g>
	<g id="gnuplot_plot_4" ><title>gnuplot_plot_4</title>
<g style="fill:none; color:red; stroke:currentColor; stroke-width:2.00; stroke-linecap:butt; stroke-linejoin:miter">
	<path stroke='green'  d='M83.5,92.0 L83.5,77.4 M80.2,92.0 L88.0,92.0 M80.2,77.4 L88.0,77.4 M116.5,371.3 L116.5,361.0 
		M112.0,371.3 L121.0,371.3 M112.0,361.0 L121.0,361.0 M149.5,402.0 L149.5,393.4 M145.0,402.0 L154.0,402.0 
		M145.0,393.4 L154.0,393.4 M182.5,406.5 L182.5,404.1 M178.0,406.5 L187.0,406.5 M178.0,404.1 L187.0,404.1 
		M215.4,410.1 L215.4,407.6 M210.9,410.1 L219.9,410.1 M210.9,407.6 L219.9,407.6 M248.4,413.2 L248.4,410.0 
		M243.9,413.2 L252.9,413.2 M243.9,410.0 L252.9,410.0 M281.4,415.2 L281.4,412.8 M276.9,415.2 L285.9,415.2 
		M276.9,412.8 L285.9,412.8 M314.4,415.9 L314.4,415.0 M309.9,415.9 L318.9,415.9 M309.9,415.0 L318.9,415.0 
		M347.4,417.6 L347.4,416.5 M342.9,417.6 L351.9,417.6 M342.9,416.5 L351.9,416.5 M380.4,418.8 L380.4,417.9 
		M375.9,418.8 L384.9,418.8 M375.9,417.9 L384.9,417.9 M413.4,419.7 L413.4,419.1 M408.9,419.7 L417.9,419.7 
		M408.9,419.1 L417.9,419.1 M446.4,420.4 L446.4,419.7 M441.9,420.4 L450.9,420.4 M441.9,419.7 L450.9,419.7 
		M479.3,421.0 L479.3,420.5 M474.8,421.0 L483.8,421.0 M474.8,420.5 L483.8,420.5 M512.3,421.8 L512.3,421.0 
		M507.8,421.8 L516.8,421.8 M507.8,421.0 L516.8,421.0 M545.3,422.2 L545.3,421.5 M540.8,422.2 L549.8,422.2 
		M540.8,421.5 L549.8,421.5  '/>	<use xlink:href='#gpPt0' transform='translate(83.5,93.0) scale(4.50)' color='green'/>
	<use xlink:href='#gpPt0' transform='translate(116.5,363.0) scale(4.50)' color='green'/>
	<use xlink:href='#gpPt0' transform='translate(149.5,396.6) scale(4.50)' color='green'/>
	<use xlink:href='#gpPt0' transform='translate(182.5,404.3) scale(4.50)' color='green'/>
	<use xlink:href='#gpPt0' transform='translate(215.4,408.9) scale(4.50)' color='green'/>
	<use xlink:href='#gpPt0' transform='translate(248.4,411.8) scale(4.50)' color='green'/>
	<use xlink:href='#gpPt0' transform='translate(281.4,414.0) scale(4.50)' color='green'/>
	<use xlink:href='#gpPt0' transform='translate(314.4,415.3) scale(4.50)' color='green'/>
	<use xlink:href='#gpPt0' transform='translate(347.4,416.9) scale(4.50)' color='green'/>
	<use xlink:href='#gpPt0' transform='translate(380.4,418.2) scale(4.50)' color='green'/>
	<use xlink:href='#gpPt0' transform='translate(413.4,419.4) scale(4.50)' color='green'/>
	<use xlink:href='#gpPt0' transform='translate(446.4,420.1) scale(4.50)' color='green'/>
	<use xlink:href='#gpPt0' transform='translate(479.3,420.8) scale(4.50)' color='green'/>
	<use xlink:href='#gpPt0' transform='translate(512.3,421.3) scale(4.50)' color='green'/>
	<use xlink:href='#gpPt0' transform='translate(545.3,421.8) scale(4.50)' color='green'/>
</g>
	</g>
<g style="fill:none; color:black; stroke:currentColor; stroke-width:2.00; stroke-linecap:butt; stroke-linejoin:miter">
	<path stroke='black'  d='M80.2,54.1 L80.2,422.4 L575.0,422.4 L575.0,54.1 L80.2,54.1 Z  '/></g>
</g>
</svg>

