<?xml version="1.0" encoding="utf-8"  standalone="no"?>
<!DOCTYPE svg PUBLIC "-//W3C//DTD SVG 1.1//EN" 
 "http://www.w3.org/Graphics/SVG/1.1/DTD/svg11.dtd">
<svg 
 width="600" height="480" 
 viewBox="0 0 600 480"
 xmlns="http://www.w3.org/2000/svg"
 xmlns:xlink="http://www.w3.org/1999/xlink"
>

<title>Gnuplot</title>
<desc>Produced by GNUPLOT 4.6 patchlevel 6 </desc>

<g id="gnuplot_canvas">

<rect x="0" y="0" width="600" height="480" fill="none"/>
<defs>

	<circle id='gpDot' r='0.5' stroke-width='0.5'/>
	<path id='gpPt0' stroke-width='0.222' stroke='currentColor' d='M-1,0 h2 M0,-1 v2'/>
	<path id='gpPt1' stroke-width='0.222' stroke='currentColor' d='M-1,-1 L1,1 M1,-1 L-1,1'/>
	<path id='gpPt2' stroke-width='0.222' stroke='currentColor' d='M-1,0 L1,0 M0,-1 L0,1 M-1,-1 L1,1 M-1,1 L1,-1'/>
	<rect id='gpPt3' stroke-width='0.222' stroke='currentColor' x='-1' y='-1' width='2' height='2'/>
	<rect id='gpPt4' stroke-width='0.222' stroke='currentColor' fill='currentColor' x='-1' y='-1' width='2' height='2'/>
	<circle id='gpPt5' stroke-width='0.222' stroke='currentColor' cx='0' cy='0' r='1'/>
	<use xlink:href='#gpPt5' id='gpPt6' fill='currentColor' stroke='none'/>
	<path id='gpPt7' stroke-width='0.222' stroke='currentColor' d='M0,-1.33 L-1.33,0.67 L1.33,0.67 z'/>
	<use xlink:href='#gpPt7' id='gpPt8' fill='currentColor' stroke='none'/>
	<use xlink:href='#gpPt7' id='gpPt9' stroke='currentColor' transform='rotate(180)'/>
	<use xlink:href='#gpPt9' id='gpPt10' fill='currentColor' stroke='none'/>
	<use xlink:href='#gpPt3' id='gpPt11' stroke='currentColor' transform='rotate(45)'/>
	<use xlink:href='#gpPt11' id='gpPt12' fill='currentColor' stroke='none'/>
	<filter id='greybox' filterUnits='objectBoundingBox' x='0' y='0' height='1' width='1'>
	  <feFlood flood-color='lightgrey' flood-opacity='1' result='grey'/>
	  <feComposite in='SourceGraphic' in2='grey' operator='atop'/>
	</filter>
</defs>
<g style="fill:none; color:white; stroke:currentColor; stroke-width:2.00; stroke-linecap:butt; stroke-linejoin:miter">
</g>
<g style="fill:none; color:black; stroke:currentColor; stroke-width:2.00; stroke-linecap:butt; stroke-linejoin:miter">
</g>
<g style="fill:none; color:gray; stroke:currentColor; stroke-width:2.00; stroke-linecap:butt; stroke-linejoin:miter">
	<path stroke='gray' stroke-dasharray=' 2,4' class="gridline"  d='M71.9,422.4 L575.0,422.4  '/></g>
<g style="fill:none; color:black; stroke:currentColor; stroke-width:2.00; stroke-linecap:butt; stroke-linejoin:miter">
	<path stroke='black'  d='M71.9,422.4 L80.9,422.4 M575.0,422.4 L566.0,422.4  '/>	<g transform="translate(63.6,426.9)" style="stroke:none; fill:black; font-family:Arial; font-size:12.00pt; text-anchor:end">
		<text> 0</text>
	</g>
</g>
<g style="fill:none; color:gray; stroke:currentColor; stroke-width:2.00; stroke-linecap:butt; stroke-linejoin:miter">
	<path stroke='gray' stroke-dasharray=' 2,4' class="gridline"  d='M71.9,348.7 L575.0,348.7  '/></g>
<g style="fill:none; color:black; stroke:currentColor; stroke-width:2.00; stroke-linecap:butt; stroke-linejoin:miter">
	<path stroke='black'  d='M71.9,348.7 L80.9,348.7 M575.0,348.7 L566.0,348.7  '/>	<g transform="translate(63.6,353.2)" style="stroke:none; fill:black; font-family:Arial; font-size:12.00pt; text-anchor:end">
		<text> 50</text>
	</g>
</g>
<g style="fill:none; color:gray; stroke:currentColor; stroke-width:2.00; stroke-linecap:butt; stroke-linejoin:miter">
	<path stroke='gray' stroke-dasharray=' 2,4' class="gridline"  d='M71.9,275.1 L575.0,275.1  '/></g>
<g style="fill:none; color:black; stroke:currentColor; stroke-width:2.00; stroke-linecap:butt; stroke-linejoin:miter">
	<path stroke='black'  d='M71.9,275.1 L80.9,275.1 M575.0,275.1 L566.0,275.1  '/>	<g transform="translate(63.6,279.6)" style="stroke:none; fill:black; font-family:Arial; font-size:12.00pt; text-anchor:end">
		<text> 100</text>
	</g>
</g>
<g style="fill:none; color:gray; stroke:currentColor; stroke-width:2.00; stroke-linecap:butt; stroke-linejoin:miter">
	<path stroke='gray' stroke-dasharray=' 2,4' class="gridline"  d='M71.9,201.4 L575.0,201.4  '/></g>
<g style="fill:none; color:black; stroke:currentColor; stroke-width:2.00; stroke-linecap:butt; stroke-linejoin:miter">
	<path stroke='black'  d='M71.9,201.4 L80.9,201.4 M575.0,201.4 L566.0,201.4  '/>	<g transform="translate(63.6,205.9)" style="stroke:none; fill:black; font-family:Arial; font-size:12.00pt; text-anchor:end">
		<text> 150</text>
	</g>
</g>
<g style="fill:none; color:gray; stroke:currentColor; stroke-width:2.00; stroke-linecap:butt; stroke-linejoin:miter">
	<path stroke='gray' stroke-dasharray=' 2,4' class="gridline"  d='M71.9,127.8 L416.6,127.8 M566.7,127.8 L575.0,127.8  '/></g>
<g style="fill:none; color:black; stroke:currentColor; stroke-width:2.00; stroke-linecap:butt; stroke-linejoin:miter">
	<path stroke='black'  d='M71.9,127.8 L80.9,127.8 M575.0,127.8 L566.0,127.8  '/>	<g transform="translate(63.6,132.3)" style="stroke:none; fill:black; font-family:Arial; font-size:12.00pt; text-anchor:end">
		<text> 200</text>
	</g>
</g>
<g style="fill:none; color:gray; stroke:currentColor; stroke-width:2.00; stroke-linecap:butt; stroke-linejoin:miter">
	<path stroke='gray' stroke-dasharray=' 2,4' class="gridline"  d='M71.9,54.1 L575.0,54.1  '/></g>
<g style="fill:none; color:black; stroke:currentColor; stroke-width:2.00; stroke-linecap:butt; stroke-linejoin:miter">
	<path stroke='black'  d='M71.9,54.1 L80.9,54.1 M575.0,54.1 L566.0,54.1  '/>	<g transform="translate(63.6,58.6)" style="stroke:none; fill:black; font-family:Arial; font-size:12.00pt; text-anchor:end">
		<text> 250</text>
	</g>
</g>
<g style="fill:none; color:gray; stroke:currentColor; stroke-width:2.00; stroke-linecap:butt; stroke-linejoin:miter">
	<path stroke='gray' stroke-dasharray=' 2,4' class="gridline"  d='M71.9,422.4 L71.9,54.1  '/></g>
<g style="fill:none; color:black; stroke:currentColor; stroke-width:2.00; stroke-linecap:butt; stroke-linejoin:miter">
	<path stroke='black'  d='M71.9,422.4 L71.9,413.4 M71.9,54.1 L71.9,63.1  '/>	<g transform="translate(71.9,444.9)" style="stroke:none; fill:black; font-family:Arial; font-size:12.00pt; text-anchor:middle">
		<text> 0</text>
	</g>
</g>
<g style="fill:none; color:gray; stroke:currentColor; stroke-width:2.00; stroke-linecap:butt; stroke-linejoin:miter">
	<path stroke='gray' stroke-dasharray=' 2,4' class="gridline"  d='M122.2,422.4 L122.2,54.1  '/></g>
<g style="fill:none; color:black; stroke:currentColor; stroke-width:2.00; stroke-linecap:butt; stroke-linejoin:miter">
	<path stroke='black'  d='M122.2,422.4 L122.2,413.4 M122.2,54.1 L122.2,63.1  '/>	<g transform="translate(122.2,444.9)" style="stroke:none; fill:black; font-family:Arial; font-size:12.00pt; text-anchor:middle">
		<text> 1000</text>
	</g>
</g>
<g style="fill:none; color:gray; stroke:currentColor; stroke-width:2.00; stroke-linecap:butt; stroke-linejoin:miter">
	<path stroke='gray' stroke-dasharray=' 2,4' class="gridline"  d='M172.5,422.4 L172.5,54.1  '/></g>
<g style="fill:none; color:black; stroke:currentColor; stroke-width:2.00; stroke-linecap:butt; stroke-linejoin:miter">
	<path stroke='black'  d='M172.5,422.4 L172.5,413.4 M172.5,54.1 L172.5,63.1  '/>	<g transform="translate(172.5,444.9)" style="stroke:none; fill:black; font-family:Arial; font-size:12.00pt; text-anchor:middle">
		<text> 2000</text>
	</g>
</g>
<g style="fill:none; color:gray; stroke:currentColor; stroke-width:2.00; stroke-linecap:butt; stroke-linejoin:miter">
	<path stroke='gray' stroke-dasharray=' 2,4' class="gridline"  d='M222.8,422.4 L222.8,54.1  '/></g>
<g style="fill:none; color:black; stroke:currentColor; stroke-width:2.00; stroke-linecap:butt; stroke-linejoin:miter">
	<path stroke='black'  d='M222.8,422.4 L222.8,413.4 M222.8,54.1 L222.8,63.1  '/>	<g transform="translate(222.8,444.9)" style="stroke:none; fill:black; font-family:Arial; font-size:12.00pt; text-anchor:middle">
		<text> 3000</text>
	</g>
</g>
<g style="fill:none; color:gray; stroke:currentColor; stroke-width:2.00; stroke-linecap:butt; stroke-linejoin:miter">
	<path stroke='gray' stroke-dasharray=' 2,4' class="gridline"  d='M273.1,422.4 L273.1,54.1  '/></g>
<g style="fill:none; color:black; stroke:currentColor; stroke-width:2.00; stroke-linecap:butt; stroke-linejoin:miter">
	<path stroke='black'  d='M273.1,422.4 L273.1,413.4 M273.1,54.1 L273.1,63.1  '/>	<g transform="translate(273.1,444.9)" style="stroke:none; fill:black; font-family:Arial; font-size:12.00pt; text-anchor:middle">
		<text> 4000</text>
	</g>
</g>
<g style="fill:none; color:gray; stroke:currentColor; stroke-width:2.00; stroke-linecap:butt; stroke-linejoin:miter">
	<path stroke='gray' stroke-dasharray=' 2,4' class="gridline"  d='M323.4,422.4 L323.4,54.1  '/></g>
<g style="fill:none; color:black; stroke:currentColor; stroke-width:2.00; stroke-linecap:butt; stroke-linejoin:miter">
	<path stroke='black'  d='M323.4,422.4 L323.4,413.4 M323.4,54.1 L323.4,63.1  '/>	<g transform="translate(323.4,444.9)" style="stroke:none; fill:black; font-family:Arial; font-size:12.00pt; text-anchor:middle">
		<text> 5000</text>
	</g>
</g>
<g style="fill:none; color:gray; stroke:currentColor; stroke-width:2.00; stroke-linecap:butt; stroke-linejoin:miter">
	<path stroke='gray' stroke-dasharray=' 2,4' class="gridline"  d='M373.8,422.4 L373.8,54.1  '/></g>
<g style="fill:none; color:black; stroke:currentColor; stroke-width:2.00; stroke-linecap:butt; stroke-linejoin:miter">
	<path stroke='black'  d='M373.8,422.4 L373.8,413.4 M373.8,54.1 L373.8,63.1  '/>	<g transform="translate(373.8,444.9)" style="stroke:none; fill:black; font-family:Arial; font-size:12.00pt; text-anchor:middle">
		<text> 6000</text>
	</g>
</g>
<g style="fill:none; color:gray; stroke:currentColor; stroke-width:2.00; stroke-linecap:butt; stroke-linejoin:miter">
	<path stroke='gray' stroke-dasharray=' 2,4' class="gridline"  d='M424.1,422.4 L424.1,153.1 M424.1,63.1 L424.1,54.1  '/></g>
<g style="fill:none; color:black; stroke:currentColor; stroke-width:2.00; stroke-linecap:butt; stroke-linejoin:miter">
	<path stroke='black'  d='M424.1,422.4 L424.1,413.4 M424.1,54.1 L424.1,63.1  '/>	<g transform="translate(424.1,444.9)" style="stroke:none; fill:black; font-family:Arial; font-size:12.00pt; text-anchor:middle">
		<text> 7000</text>
	</g>
</g>
<g style="fill:none; color:gray; stroke:currentColor; stroke-width:2.00; stroke-linecap:butt; stroke-linejoin:miter">
	<path stroke='gray' stroke-dasharray=' 2,4' class="gridline"  d='M474.4,422.4 L474.4,153.1 M474.4,63.1 L474.4,54.1  '/></g>
<g style="fill:none; color:black; stroke:currentColor; stroke-width:2.00; stroke-linecap:butt; stroke-linejoin:miter">
	<path stroke='black'  d='M474.4,422.4 L474.4,413.4 M474.4,54.1 L474.4,63.1  '/>	<g transform="translate(474.4,444.9)" style="stroke:none; fill:black; font-family:Arial; font-size:12.00pt; text-anchor:middle">
		<text> 8000</text>
	</g>
</g>
<g style="fill:none; color:gray; stroke:currentColor; stroke-width:2.00; stroke-linecap:butt; stroke-linejoin:miter">
	<path stroke='gray' stroke-dasharray=' 2,4' class="gridline"  d='M524.7,422.4 L524.7,153.1 M524.7,63.1 L524.7,54.1  '/></g>
<g style="fill:none; color:black; stroke:currentColor; stroke-width:2.00; stroke-linecap:butt; stroke-linejoin:miter">
	<path stroke='black'  d='M524.7,422.4 L524.7,413.4 M524.7,54.1 L524.7,63.1  '/>	<g transform="translate(524.7,444.9)" style="stroke:none; fill:black; font-family:Arial; font-size:12.00pt; text-anchor:middle">
		<text> 9000</text>
	</g>
</g>
<g style="fill:none; color:gray; stroke:currentColor; stroke-width:2.00; stroke-linecap:butt; stroke-linejoin:miter">
	<path stroke='gray' stroke-dasharray=' 2,4' class="gridline"  d='M575.0,422.4 L575.0,54.1  '/></g>
<g style="fill:none; color:black; stroke:currentColor; stroke-width:2.00; stroke-linecap:butt; stroke-linejoin:miter">
	<path stroke='black'  d='M575.0,422.4 L575.0,413.4 M575.0,54.1 L575.0,63.1  '/>	<g transform="translate(575.0,444.9)" style="stroke:none; fill:black; font-family:Arial; font-size:12.00pt; text-anchor:middle">
		<text> 10000</text>
	</g>
	<path stroke='black'  d='M71.9,54.1 L71.9,422.4 L575.0,422.4 L575.0,54.1 L71.9,54.1 Z  '/>	<g transform="translate(17.6,238.3) rotate(270)" style="stroke:none; fill:black; font-family:Arial; font-size:12.00pt; text-anchor:middle">
		<text>Objective value</text>
	</g>
	<g transform="translate(323.4,471.9)" style="stroke:none; fill:black; font-family:Arial; font-size:12.00pt; text-anchor:middle">
		<text>Function evaluations (/1)</text>
	</g>
	<g transform="translate(323.4,31.6)" style="stroke:none; fill:black; font-family:Arial; font-size:12.00pt; text-anchor:middle">
		<text>Objective value log</text>
	</g>
</g>
	<g id="gnuplot_plot_1" ><title>gnuplot_plot_1</title>
<g style="fill:none; color:red; stroke:currentColor; stroke-width:2.00; stroke-linecap:butt; stroke-linejoin:miter">
	<g transform="translate(507.9,76.6)" style="stroke:none; fill:black; font-family:Arial; font-size:12.00pt; text-anchor:end">
		<text>default</text>
	</g>
	<path stroke='red'  d='M516.2,72.1 L558.4,72.1 M82.0,136.6 L87.0,155.7 L92.0,187.5 L97.1,230.5 L102.1,253.5 L107.1,284.9 
		L112.1,299.9 L117.2,316.6 L122.2,323.4 L127.2,335.4 L132.3,340.7 L137.3,346.6 L142.3,352.8 L147.4,358.9 
		L152.4,360.2 L157.4,360.6 L162.5,361.8 L167.5,366.3 L172.5,368.2 L177.6,369.4 L182.6,371.0 L187.6,373.6 
		L192.6,374.9 L197.7,376.1 L202.7,376.7 L207.7,380.5 L212.8,381.5 L217.8,384.3 L222.8,384.9 L227.9,386.1 
		L232.9,387.5 L237.9,388.0 L243.0,389.2 L248.0,390.0 L253.0,390.6 L258.0,392.5 L263.1,394.7 L268.1,395.1 
		L273.1,395.6 L278.2,396.6 L283.2,396.9 L288.2,397.2 L293.3,397.4 L298.3,398.0 L303.3,398.1 L308.4,398.2 
		L313.4,398.4 L318.4,398.6 L323.4,399.2 L328.5,399.2 L333.5,399.2 L338.5,399.5 L343.6,400.1 L348.6,400.6 
		L353.6,401.3 L358.7,401.9 L363.7,401.9 L368.7,402.4 L373.8,403.1 L378.8,403.2 L383.8,403.4 L388.9,403.5 
		L393.9,403.6 L398.9,403.8 L403.9,404.3 L409.0,404.4 L414.0,404.7 L419.0,405.1 L424.1,405.4 L429.1,405.5 
		L434.1,405.6 L439.2,405.7 L444.2,405.8 L449.2,406.2 L454.3,406.3 L459.3,406.4 L464.3,406.6 L469.3,406.6 
		L474.4,406.7 L479.4,407.0 L484.4,407.3 L489.5,407.4 L494.5,407.6 L499.5,407.6 L504.6,407.8 L509.6,407.8 
		L514.6,407.9 L519.7,408.0 L524.7,408.3 L529.7,408.3 L534.8,408.7 L539.8,408.8 L544.8,408.9 L549.8,409.1 
		L554.9,409.3 L559.9,409.7 L564.9,409.7 L570.0,409.7 L575.0,409.9  '/></g>
	</g>
	<g id="gnuplot_plot_2" ><title>gnuplot_plot_2</title>
<g style="fill:none; color:red; stroke:currentColor; stroke-width:2.00; stroke-linecap:butt; stroke-linejoin:miter">
	<path stroke='red'  d='M82.0,166.6 L82.0,115.9 M77.5,166.6 L86.5,166.6 M77.5,115.9 L86.5,115.9 M182.6,380.0 L182.6,362.4 
		M178.1,380.0 L187.1,380.0 M178.1,362.4 L187.1,362.4 M283.2,400.4 L283.2,393.2 M278.7,400.4 L287.7,400.4 
		M278.7,393.2 L287.7,393.2 M383.8,409.9 L383.8,400.6 M379.3,409.9 L388.3,409.9 M379.3,400.6 L388.3,400.6 
		M484.4,413.5 L484.4,403.9 M479.9,413.5 L488.9,413.5 M479.9,403.9 L488.9,403.9  '/>	<use xlink:href='#gpPt0' transform='translate(82.0,136.6) scale(4.50)' color='red'/>
	<use xlink:href='#gpPt0' transform='translate(182.6,371.0) scale(4.50)' color='red'/>
	<use xlink:href='#gpPt0' transform='translate(283.2,396.9) scale(4.50)' color='red'/>
	<use xlink:href='#gpPt0' transform='translate(383.8,403.4) scale(4.50)' color='red'/>
	<use xlink:href='#gpPt0' transform='translate(484.4,407.3) scale(4.50)' color='red'/>
</g>
	</g>
	<g id="gnuplot_plot_3" ><title>gnuplot_plot_3</title>
<g style="fill:none; color:red; stroke:currentColor; stroke-width:2.00; stroke-linecap:butt; stroke-linejoin:miter">
	<g transform="translate(507.9,94.6)" style="stroke:none; fill:black; font-family:Arial; font-size:12.00pt; text-anchor:end">
		<text>two_F=0.8</text>
	</g>
	<path stroke='green'  d='M516.2,90.1 L558.4,90.1 M82.0,129.1 L87.0,136.8 L92.0,137.8 L97.1,154.2 L102.1,154.2 L107.1,159.3 
		L112.1,181.6 L117.2,185.9 L122.2,196.8 L127.2,205.3 L132.3,213.4 L137.3,214.5 L142.3,219.7 L147.4,229.0 
		L152.4,230.5 L157.4,231.8 L162.5,241.0 L167.5,245.3 L172.5,245.3 L177.6,250.9 L182.6,250.9 L187.6,252.4 
		L192.6,255.3 L197.7,258.8 L202.7,263.4 L207.7,264.7 L212.8,265.9 L217.8,265.9 L222.8,269.0 L227.9,271.8 
		L232.9,276.2 L237.9,276.4 L243.0,279.7 L248.0,280.3 L253.0,280.3 L258.0,280.3 L263.1,281.1 L268.1,281.9 
		L273.1,281.9 L278.2,285.9 L283.2,288.2 L288.2,288.9 L293.3,288.9 L298.3,292.1 L303.3,292.1 L308.4,292.1 
		L313.4,292.1 L318.4,294.2 L323.4,297.0 L328.5,297.0 L333.5,297.0 L338.5,297.0 L343.6,298.0 L348.6,298.9 
		L353.6,298.9 L358.7,298.9 L363.7,298.9 L368.7,298.9 L373.8,298.9 L378.8,299.9 L383.8,299.9 L388.9,300.1 
		L393.9,300.1 L398.9,300.1 L403.9,300.1 L409.0,300.1 L414.0,300.4 L419.0,300.4 L424.1,302.7 L429.1,302.7 
		L434.1,302.7 L439.2,302.8 L444.2,302.9 L449.2,303.9 L454.3,303.9 L459.3,312.4 L464.3,312.4 L469.3,315.5 
		L474.4,315.8 L479.4,315.8 L484.4,315.8 L489.5,315.8 L494.5,315.8 L499.5,315.8 L504.6,315.8 L509.6,315.8 
		L514.6,316.6 L519.7,321.9 L524.7,321.9 L529.7,321.9 L534.8,325.4 L539.8,326.3 L544.8,326.3 L549.8,326.3 
		L554.9,326.3 L559.9,326.3 L564.9,326.3 L570.0,330.1 L575.0,330.1  '/></g>
	</g>
	<g id="gnuplot_plot_4" ><title>gnuplot_plot_4</title>
<g style="fill:none; color:red; stroke:currentColor; stroke-width:2.00; stroke-linecap:butt; stroke-linejoin:miter">
	<path stroke='green'  d='M82.0,166.6 L82.0,99.9 M77.5,166.6 L86.5,166.6 M77.5,99.9 L86.5,99.9 M182.6,277.3 L182.6,224.1 
		M178.1,277.3 L187.1,277.3 M178.1,224.1 L187.1,224.1 M283.2,306.3 L283.2,275.9 M278.7,306.3 L287.7,306.3 
		M278.7,275.9 L287.7,275.9 M383.8,317.2 L383.8,285.8 M379.3,317.2 L388.3,317.2 M379.3,285.8 L388.3,285.8 
		M484.4,341.3 L484.4,294.0 M479.9,341.3 L488.9,341.3 M479.9,294.0 L488.9,294.0  '/>	<use xlink:href='#gpPt0' transform='translate(82.0,129.1) scale(4.50)' color='green'/>
	<use xlink:href='#gpPt0' transform='translate(182.6,250.9) scale(4.50)' color='green'/>
	<use xlink:href='#gpPt0' transform='translate(283.2,288.2) scale(4.50)' color='green'/>
	<use xlink:href='#gpPt0' transform='translate(383.8,299.9) scale(4.50)' color='green'/>
	<use xlink:href='#gpPt0' transform='translate(484.4,315.8) scale(4.50)' color='green'/>
</g>
	</g>
	<g id="gnuplot_plot_5" ><title>gnuplot_plot_5</title>
<g style="fill:none; color:red; stroke:currentColor; stroke-width:2.00; stroke-linecap:butt; stroke-linejoin:miter">
	<g transform="translate(507.9,112.6)" style="stroke:none; fill:black; font-family:Arial; font-size:12.00pt; text-anchor:end">
		<text>two_F=uni</text>
	</g>
	<path stroke='blue'  d='M516.2,108.1 L558.4,108.1 M82.0,133.5 L87.0,134.4 L92.0,159.4 L97.1,166.6 L102.1,171.7 L107.1,202.5 
		L112.1,225.0 L117.2,236.2 L122.2,240.9 L127.2,243.4 L132.3,244.7 L137.3,246.1 L142.3,259.4 L147.4,267.5 
		L152.4,267.5 L157.4,270.2 L162.5,274.6 L167.5,280.2 L172.5,284.7 L177.6,290.9 L182.6,292.9 L187.6,296.7 
		L192.6,303.6 L197.7,304.9 L202.7,306.1 L207.7,307.0 L212.8,309.3 L217.8,310.0 L222.8,310.3 L227.9,311.9 
		L232.9,313.9 L237.9,314.5 L243.0,314.5 L248.0,317.5 L253.0,319.0 L258.0,319.8 L263.1,321.1 L268.1,321.1 
		L273.1,321.1 L278.2,322.6 L283.2,322.6 L288.2,322.9 L293.3,323.8 L298.3,324.4 L303.3,324.7 L308.4,324.7 
		L313.4,325.5 L318.4,325.5 L323.4,325.8 L328.5,325.8 L333.5,326.2 L338.5,331.0 L343.6,331.0 L348.6,332.9 
		L353.6,332.9 L358.7,333.1 L363.7,333.6 L368.7,333.6 L373.8,333.6 L378.8,333.6 L383.8,333.6 L388.9,333.6 
		L393.9,334.4 L398.9,334.8 L403.9,334.8 L409.0,334.8 L414.0,336.6 L419.0,340.0 L424.1,340.0 L429.1,340.0 
		L434.1,341.6 L439.2,341.8 L444.2,341.8 L449.2,341.8 L454.3,341.8 L459.3,342.7 L464.3,342.7 L469.3,342.7 
		L474.4,342.7 L479.4,343.3 L484.4,343.3 L489.5,343.3 L494.5,343.3 L499.5,343.3 L504.6,343.3 L509.6,343.3 
		L514.6,344.0 L519.7,346.0 L524.7,346.0 L529.7,346.0 L534.8,346.0 L539.8,346.0 L544.8,346.5 L549.8,346.5 
		L554.9,346.5 L559.9,348.6 L564.9,348.6 L570.0,348.6 L575.0,348.6  '/></g>
	</g>
	<g id="gnuplot_plot_6" ><title>gnuplot_plot_6</title>
<g style="fill:none; color:red; stroke:currentColor; stroke-width:2.00; stroke-linecap:butt; stroke-linejoin:miter">
	<path stroke='blue'  d='M82.0,166.6 L82.0,126.8 M77.5,166.6 L86.5,166.6 M77.5,126.8 L86.5,126.8 M182.6,305.9 L182.6,277.6 
		M178.1,305.9 L187.1,305.9 M178.1,277.6 L187.1,277.6 M283.2,337.5 L283.2,307.2 M278.7,337.5 L287.7,337.5 
		M278.7,307.2 L287.7,307.2 M383.8,344.6 L383.8,318.4 M379.3,344.6 L388.3,344.6 M379.3,318.4 L388.3,318.4 
		M484.4,354.6 L484.4,337.2 M479.9,354.6 L488.9,354.6 M479.9,337.2 L488.9,337.2  '/>	<use xlink:href='#gpPt0' transform='translate(82.0,133.5) scale(4.50)' color='blue'/>
	<use xlink:href='#gpPt0' transform='translate(182.6,292.9) scale(4.50)' color='blue'/>
	<use xlink:href='#gpPt0' transform='translate(283.2,322.6) scale(4.50)' color='blue'/>
	<use xlink:href='#gpPt0' transform='translate(383.8,333.6) scale(4.50)' color='blue'/>
	<use xlink:href='#gpPt0' transform='translate(484.4,343.3) scale(4.50)' color='blue'/>
</g>
	</g>
	<g id="gnuplot_plot_7" ><title>gnuplot_plot_7</title>
<g style="fill:none; color:red; stroke:currentColor; stroke-width:2.00; stroke-linecap:butt; stroke-linejoin:miter">
	<g transform="translate(507.9,130.6)" style="stroke:none; fill:black; font-family:Arial; font-size:12.00pt; text-anchor:end">
		<text>three_F=0.8</text>
	</g>
	<path stroke='cyan'  d='M516.2,126.1 L558.4,126.1 M82.0,130.2 L87.0,144.8 L92.0,168.9 L97.1,197.5 L102.1,220.1 L107.1,232.3 
		L112.1,245.5 L117.2,253.1 L122.2,265.6 L127.2,273.9 L132.3,289.5 L137.3,301.5 L142.3,304.0 L147.4,304.0 
		L152.4,307.0 L157.4,311.3 L162.5,315.6 L167.5,320.3 L172.5,324.9 L177.6,324.9 L182.6,327.6 L187.6,329.4 
		L192.6,331.9 L197.7,332.7 L202.7,332.9 L207.7,334.5 L212.8,334.7 L217.8,334.7 L222.8,334.7 L227.9,334.7 
		L232.9,336.4 L237.9,339.0 L243.0,339.1 L248.0,339.1 L253.0,343.7 L258.0,345.3 L263.1,345.3 L268.1,345.3 
		L273.1,345.3 L278.2,346.9 L283.2,346.9 L288.2,348.0 L293.3,348.0 L298.3,348.0 L303.3,348.0 L308.4,348.0 
		L313.4,348.0 L318.4,348.0 L323.4,348.0 L328.5,348.0 L333.5,348.0 L338.5,348.0 L343.6,348.6 L348.6,348.6 
		L353.6,348.6 L358.7,348.6 L363.7,348.6 L368.7,349.3 L373.8,349.3 L378.8,349.3 L383.8,349.3 L388.9,351.3 
		L393.9,351.3 L398.9,351.3 L403.9,351.3 L409.0,352.4 L414.0,352.4 L419.0,353.1 L424.1,353.1 L429.1,353.1 
		L434.1,354.4 L439.2,354.4 L444.2,354.4 L449.2,355.4 L454.3,355.4 L459.3,355.4 L464.3,355.4 L469.3,355.4 
		L474.4,356.3 L479.4,356.3 L484.4,356.3 L489.5,358.1 L494.5,358.1 L499.5,358.1 L504.6,358.1 L509.6,359.9 
		L514.6,359.9 L519.7,359.9 L524.7,359.9 L529.7,359.9 L534.8,359.9 L539.8,360.1 L544.8,360.1 L549.8,360.1 
		L554.9,360.1 L559.9,360.1 L564.9,360.4 L570.0,360.4 L575.0,360.4  '/></g>
	</g>
	<g id="gnuplot_plot_8" ><title>gnuplot_plot_8</title>
<g style="fill:none; color:red; stroke:currentColor; stroke-width:2.00; stroke-linecap:butt; stroke-linejoin:miter">
	<path stroke='cyan'  d='M82.0,198.5 L82.0,69.2 M77.5,198.5 L86.5,198.5 M77.5,69.2 L86.5,69.2 M182.6,336.1 L182.6,319.0 
		M178.1,336.1 L187.1,336.1 M178.1,319.0 L187.1,319.0 M283.2,355.5 L283.2,342.2 M278.7,355.5 L287.7,355.5 
		M278.7,342.2 L287.7,342.2 M383.8,355.5 L383.8,344.0 M379.3,355.5 L388.3,355.5 M379.3,344.0 L388.3,344.0 
		M484.4,358.2 L484.4,355.5 M479.9,358.2 L488.9,358.2 M479.9,355.5 L488.9,355.5  '/>	<use xlink:href='#gpPt0' transform='translate(82.0,130.2) scale(4.50)' color='cyan'/>
	<use xlink:href='#gpPt0' transform='translate(182.6,327.6) scale(4.50)' color='cyan'/>
	<use xlink:href='#gpPt0' transform='translate(283.2,346.9) scale(4.50)' color='cyan'/>
	<use xlink:href='#gpPt0' transform='translate(383.8,349.3) scale(4.50)' color='cyan'/>
	<use xlink:href='#gpPt0' transform='translate(484.4,356.3) scale(4.50)' color='cyan'/>
</g>
	</g>
	<g id="gnuplot_plot_9" ><title>gnuplot_plot_9</title>
<g style="fill:none; color:red; stroke:currentColor; stroke-width:2.00; stroke-linecap:butt; stroke-linejoin:miter">
	<g transform="translate(507.9,148.6)" style="stroke:none; fill:black; font-family:Arial; font-size:12.00pt; text-anchor:end">
		<text>three_F=uni</text>
	</g>
	<path stroke='#157545'  d='M516.2,144.1 L558.4,144.1 M82.0,129.9 L87.0,138.4 L92.0,170.7 L97.1,198.1 L102.1,237.8 L107.1,260.3 
		L112.1,275.6 L117.2,296.9 L122.2,304.4 L127.2,311.8 L132.3,316.2 L137.3,316.2 L142.3,318.8 L147.4,320.6 
		L152.4,327.7 L157.4,328.9 L162.5,335.1 L167.5,337.3 L172.5,340.2 L177.6,341.5 L182.6,344.7 L187.6,345.0 
		L192.6,346.8 L197.7,349.7 L202.7,350.9 L207.7,352.2 L212.8,352.2 L217.8,352.2 L222.8,355.4 L227.9,355.4 
		L232.9,355.4 L237.9,356.1 L243.0,357.5 L248.0,358.1 L253.0,359.5 L258.0,359.5 L263.1,359.5 L268.1,359.5 
		L273.1,359.5 L278.2,360.2 L283.2,360.2 L288.2,360.2 L293.3,360.2 L298.3,360.3 L303.3,360.6 L308.4,360.6 
		L313.4,361.0 L318.4,361.4 L323.4,365.3 L328.5,365.3 L333.5,365.3 L338.5,365.3 L343.6,365.5 L348.6,365.5 
		L353.6,365.5 L358.7,365.5 L363.7,365.9 L368.7,365.9 L373.8,365.9 L378.8,366.8 L383.8,367.6 L388.9,367.6 
		L393.9,367.6 L398.9,367.6 L403.9,367.6 L409.0,367.6 L414.0,367.7 L419.0,367.7 L424.1,367.7 L429.1,367.7 
		L434.1,369.8 L439.2,369.8 L444.2,370.7 L449.2,371.2 L454.3,371.2 L459.3,371.2 L464.3,371.2 L469.3,371.5 
		L474.4,371.5 L479.4,372.8 L484.4,373.8 L489.5,373.8 L494.5,373.8 L499.5,373.8 L504.6,374.7 L509.6,374.7 
		L514.6,374.7 L519.7,374.8 L524.7,376.1 L529.7,376.1 L534.8,376.4 L539.8,376.4 L544.8,376.4 L549.8,376.4 
		L554.9,376.4 L559.9,376.4 L564.9,376.5 L570.0,376.5 L575.0,376.5  '/></g>
	</g>
	<g id="gnuplot_plot_10" ><title>gnuplot_plot_10</title>
<g style="fill:none; color:red; stroke:currentColor; stroke-width:2.00; stroke-linecap:butt; stroke-linejoin:miter">
	<path stroke='#157545'  d='M82.0,166.6 L82.0,69.2 M77.5,166.6 L86.5,166.6 M77.5,69.2 L86.5,69.2 M182.6,349.7 L182.6,334.0 
		M178.1,349.7 L187.1,349.7 M178.1,334.0 L187.1,334.0 M283.2,365.2 L283.2,356.5 M278.7,365.2 L287.7,365.2 
		M278.7,356.5 L287.7,356.5 M383.8,372.1 L383.8,360.4 M379.3,372.1 L388.3,372.1 M379.3,360.4 L388.3,360.4 
		M484.4,384.2 L484.4,365.2 M479.9,384.2 L488.9,384.2 M479.9,365.2 L488.9,365.2  '/>	<use xlink:href='#gpPt0' transform='translate(82.0,129.9) scale(4.50)' color='#157545'/>
	<use xlink:href='#gpPt0' transform='translate(182.6,344.7) scale(4.50)' color='#157545'/>
	<use xlink:href='#gpPt0' transform='translate(283.2,360.2) scale(4.50)' color='#157545'/>
	<use xlink:href='#gpPt0' transform='translate(383.8,367.6) scale(4.50)' color='#157545'/>
	<use xlink:href='#gpPt0' transform='translate(484.4,373.8) scale(4.50)' color='#157545'/>
</g>
	</g>
<g style="fill:none; color:black; stroke:currentColor; stroke-width:2.00; stroke-linecap:butt; stroke-linejoin:miter">
	<path stroke='black'  d='M71.9,54.1 L71.9,422.4 L575.0,422.4 L575.0,54.1 L71.9,54.1 Z  '/></g>
</g>
</svg>

