<?xml version="1.0" encoding="UTF-8"?>
<session version="1.0">
<refactoring comment="Delete resource &apos;pixy&apos;" deleteContents="true" description="Delete resource &apos;pixy&apos;" element1="/pixy" flags="7" id="org.eclipse.ltk.core.refactoring.delete.resources" resources="1" stamp="1426605667399"/>
</session>